<?xml version="1.0" encoding="UTF-8" standalone="no"?>
<!-- Generator: Adobe Illustrator 16.0.0, SVG Export Plug-In . SVG Version: 6.00 Build 0)  -->

<svg
   version="1.1"
   id="Ebene_1"
   x="0px"
   y="0px"
   width="323.83725"
   height="126.70803"
   viewBox="0 0 323.83724 126.70803"
   enable-background="new 0 0 382.988 148.965"
   xml:space="preserve"
   sodipodi:docname="attac_farbe_kein_Rand.svg"
   inkscape:version="1.3.2 (091e20ef0f, 2023-11-25)"
   xmlns:inkscape="http://www.inkscape.org/namespaces/inkscape"
   xmlns:sodipodi="http://sodipodi.sourceforge.net/DTD/sodipodi-0.dtd"
   xmlns:xlink="http://www.w3.org/1999/xlink"
   xmlns="http://www.w3.org/2000/svg"
   xmlns:svg="http://www.w3.org/2000/svg"><defs
   id="defs10" /><sodipodi:namedview
   id="namedview10"
   pagecolor="#ffffff"
   bordercolor="#000000"
   borderopacity="0.25"
   inkscape:showpageshadow="2"
   inkscape:pageopacity="0.0"
   inkscape:pagecheckerboard="0"
   inkscape:deskcolor="#d1d1d1"
   inkscape:zoom="3.5771355"
   inkscape:cx="161.86135"
   inkscape:cy="59.544851"
   inkscape:window-width="1920"
   inkscape:window-height="1008"
   inkscape:window-x="0"
   inkscape:window-y="0"
   inkscape:window-maximized="1"
   inkscape:current-layer="Ebene_1" />
<g
   id="attac_4_"
   transform="translate(-29.575139,-14.696104)">
	<g
   id="g7">
		<path
   fill-rule="evenodd"
   clip-rule="evenodd"
   fill="#e94f23"
   d="m 208.789,135.023 c 0,-2.128 0.013,-4.168 -0.005,-6.207 -0.011,-1.345 -0.023,-2.692 -0.111,-4.034 -0.105,-1.638 -0.697,-2.394 -1.896,-2.591 -1.51,-0.25 -2.947,0.434 -3.525,1.728 -0.164,0.369 -0.26,0.802 -0.264,1.206 -0.021,3.137 -0.011,6.273 -0.012,9.408 0,0.124 -0.021,0.247 -0.037,0.432 -1.39,0 -2.769,0 -4.228,0 -0.01,-0.189 -0.03,-0.409 -0.03,-0.631 -0.005,-2.672 0.008,-5.346 -0.02,-8.019 -0.006,-0.71 -0.102,-1.422 -0.203,-2.128 -0.273,-1.924 -1.563,-2.173 -3.029,-1.971 -1.235,0.17 -2.003,0.991 -2.506,2.081 -0.067,0.146 -0.086,0.325 -0.086,0.489 0.004,3.197 0.004,6.397 0.035,9.595 0.006,0.511 -0.164,0.661 -0.647,0.653 -1.194,-0.023 -2.389,-0.009 -3.625,-0.009 0,-5.401 0,-10.737 0,-16.178 1,0 2,-0.015 2.998,0.02 0.127,0.005 0.304,0.255 0.354,0.421 0.129,0.418 0.186,0.858 0.297,1.283 0.043,0.165 0.154,0.443 0.234,0.443 0.176,0.001 0.402,-0.101 0.521,-0.236 0.918,-1.055 1.992,-1.855 3.371,-2.197 1.082,-0.27 2.16,-0.297 3.241,10e-4 1.219,0.336 2.028,1.139 2.577,2.243 0.091,0.185 0.173,0.371 0.301,0.646 0.202,-0.269 0.359,-0.478 0.516,-0.687 1.934,-2.616 4.906,-2.958 7.623,-1.852 1.48,0.602 2.019,2.008 2.17,3.463 0.191,1.854 0.232,3.728 0.27,5.595 0.042,2.147 0.006,4.294 0.014,6.439 0,0.322 -0.004,0.595 -0.433,0.595 -1.258,-0.003 -2.518,-0.001 -3.865,-0.001 z"
   id="path1" />
		<path
   fill-rule="evenodd"
   clip-rule="evenodd"
   fill="#e94f23"
   d="m 148.706,113.473 c 1.524,0 2.973,0 4.484,0 0,2.841 0,5.669 0,8.552 0.234,0.027 0.413,0.067 0.592,0.067 2.484,0.004 4.967,-0.013 7.449,0.012 0.525,0.005 0.682,-0.155 0.677,-0.679 -0.024,-2.524 -0.011,-5.05 -0.009,-7.574 0,-0.104 0.017,-0.206 0.033,-0.394 1.41,0 2.813,-0.007 4.214,0.015 0.103,0 0.249,0.18 0.293,0.306 0.052,0.149 0.019,0.332 0.019,0.499 0,6.65 -0.008,13.3 0.014,19.95 0.002,0.629 -0.143,0.855 -0.801,0.818 -0.986,-0.059 -1.979,-0.049 -2.966,-0.005 -0.614,0.027 -0.837,-0.127 -0.825,-0.797 0.043,-2.504 0.018,-5.009 0.016,-7.514 0,-0.185 -0.016,-0.369 -0.027,-0.599 -2.884,0 -5.729,0 -8.641,0 0,2.953 0,5.888 0,8.841 -1.545,0 -3.023,0 -4.521,0 -0.001,-7.182 -0.001,-14.309 -0.001,-21.498 z"
   id="path2" />
		<path
   fill-rule="evenodd"
   clip-rule="evenodd"
   fill="#e94f23"
   d="m 283.565,119.313 c 0,0.384 0,0.698 0,1.012 -0.002,4.798 0.008,9.596 -0.008,14.394 -0.012,3.446 -1.633,5.516 -4.969,6.312 -2.813,0.673 -5.588,0.386 -8.322,-0.464 -0.178,-0.057 -0.34,-0.161 -0.572,-0.274 0.335,-1.162 0.668,-2.315 1.016,-3.523 0.689,0.265 1.316,0.546 1.969,0.748 1.543,0.477 3.107,0.472 4.658,0.038 1.197,-0.334 1.92,-1.351 2.032,-2.821 0.042,-0.541 0.007,-1.09 0.007,-1.721 -0.189,0.042 -0.397,0.022 -0.468,0.111 -0.89,1.144 -2.161,1.376 -3.479,1.476 -1.598,0.118 -3.164,-0.034 -4.582,-0.848 -1.47,-0.842 -2.203,-2.205 -2.516,-3.817 -0.5,-2.585 -0.52,-5.149 0.615,-7.588 1.013,-2.175 2.859,-3.29 5.155,-3.707 3.185,-0.578 6.303,-0.115 9.464,0.672 z m -4.295,6.709 c 0,-1.032 -0.02,-2.063 0.011,-3.093 0.011,-0.366 -0.104,-0.575 -0.451,-0.614 -0.955,-0.11 -1.914,-0.293 -2.869,-0.276 -1.715,0.027 -2.802,0.889 -3.249,2.545 -0.418,1.547 -0.425,3.122 0.098,4.657 0.372,1.091 1.117,1.836 2.292,2.001 0.928,0.13 1.86,0.041 2.705,-0.398 0.913,-0.474 1.626,-1.075 1.48,-2.297 -0.099,-0.831 -0.018,-1.683 -0.017,-2.525 z"
   id="path3" />
		<path
   fill-rule="evenodd"
   clip-rule="evenodd"
   fill="#e94f23"
   d="m 221.856,113.454 c 0,2.297 0,4.498 0,6.831 0.266,-0.131 0.439,-0.18 0.565,-0.285 3.831,-3.184 9.093,-1.59 10.288,3.186 0.605,2.417 0.602,4.873 -0.299,7.254 -1.084,2.874 -3.268,4.42 -6.22,4.837 -2.69,0.379 -5.353,0.025 -7.974,-0.679 -0.547,-0.147 -0.715,-0.406 -0.714,-0.96 0.017,-6.521 0.016,-13.042 -0.001,-19.563 -0.001,-0.515 0.162,-0.645 0.65,-0.631 1.196,0.031 2.39,0.01 3.705,0.01 z m -0.04,14.461 c 0,0.926 0.028,1.853 -0.011,2.775 -0.023,0.551 0.208,0.856 0.712,0.915 0.789,0.092 1.585,0.173 2.378,0.173 1.682,-0.002 2.807,-0.822 3.363,-2.426 0.501,-1.442 0.516,-2.937 0.262,-4.419 -0.364,-2.114 -1.514,-2.993 -3.638,-2.89 -1.714,0.084 -3.062,1.497 -3.065,3.221 -0.004,0.884 -0.002,1.767 -0.001,2.651 z"
   id="path4" />
		<path
   fill-rule="evenodd"
   clip-rule="evenodd"
   fill="#e94f23"
   d="m 179.681,125.313 c 0.031,-0.108 0.057,-0.166 0.063,-0.227 0.266,-2.364 -0.453,-3.175 -2.846,-3.143 -1.564,0.02 -3.076,0.353 -4.529,0.939 -0.211,0.085 -0.426,0.16 -0.701,0.266 -0.349,-0.988 -0.702,-1.947 -1.014,-2.92 -0.035,-0.11 0.135,-0.391 0.265,-0.436 3.089,-1.1 6.249,-1.624 9.515,-1.017 1.861,0.345 3.189,1.718 3.438,3.709 0.174,1.387 0.169,2.81 0.097,4.209 -0.141,2.729 -0.417,5.453 0.415,8.13 0.011,0.035 -0.01,0.079 -0.027,0.216 -1.047,0 -2.108,0.011 -3.168,-0.017 -0.116,-0.003 -0.275,-0.221 -0.329,-0.369 -0.157,-0.433 -0.251,-0.886 -0.407,-1.319 -0.086,-0.24 -0.244,-0.454 -0.369,-0.681 -0.207,0.15 -0.448,0.269 -0.613,0.455 -1.961,2.222 -4.707,2.605 -7.18,1.688 -2.098,-0.775 -3.197,-2.912 -2.861,-5.116 0.451,-2.972 2.504,-4.077 4.954,-4.466 1.624,-0.259 3.263,-0.287 4.885,0.092 0.115,0.03 0.246,0.007 0.412,0.007 z m 0.062,3.544 c 0,-0.209 0.046,-0.434 -0.014,-0.625 -0.057,-0.182 -0.203,-0.442 -0.35,-0.473 -1.257,-0.261 -2.525,-0.435 -3.803,-0.132 -1.185,0.28 -1.888,1.208 -1.762,2.316 0.128,1.135 0.918,1.812 2.16,1.842 0.273,0.005 0.547,0.005 0.819,-0.013 1.587,-0.112 2.952,-1.465 2.95,-2.915 z"
   id="path5" />
		<path
   fill-rule="evenodd"
   clip-rule="evenodd"
   fill="#e94f23"
   d="m 236.656,118.857 c 0.146,-0.014 0.227,-0.028 0.308,-0.028 1.299,-10e-4 2.6,-10e-4 3.975,-10e-4 0,0.395 -0.002,0.724 0,1.054 0.015,2.944 0.029,5.89 0.045,8.835 0.002,0.188 0.003,0.38 0.037,0.564 0.178,0.947 0.393,1.913 1.48,2.212 1.352,0.373 2.633,0.182 3.708,-0.792 0.749,-0.677 1.116,-1.494 1.097,-2.562 -0.057,-3.066 -0.02,-6.135 -0.02,-9.299 0.463,0 0.895,0 1.326,0 0.821,0 1.643,0.02 2.461,-0.008 0.379,-0.014 0.546,0.084 0.516,0.485 -0.025,0.354 0.002,0.714 0.002,1.072 0.004,3.617 -0.016,7.236 0.027,10.854 0.012,1.001 0.209,2 0.324,3 0.025,0.224 0.063,0.447 0.107,0.768 -0.991,0 -1.929,0.015 -2.865,-0.016 -0.125,-0.005 -0.295,-0.214 -0.352,-0.363 -0.219,-0.568 -0.391,-1.152 -0.604,-1.721 -0.057,-0.152 -0.178,-0.334 -0.314,-0.384 -0.082,-0.032 -0.28,0.136 -0.372,0.256 -1.081,1.42 -2.489,2.317 -4.254,2.573 -1.362,0.197 -2.73,0.168 -4.013,-0.43 -1.6,-0.748 -2.187,-2.188 -2.441,-3.792 -0.145,-0.908 -0.195,-1.84 -0.203,-2.761 -0.025,-2.967 -0.012,-5.933 -0.01,-8.899 0.001,-0.2 0.023,-0.402 0.035,-0.617 z"
   id="path6" />
		<path
   fill-rule="evenodd"
   clip-rule="evenodd"
   fill="#e94f23"
   d="m 265.977,122.689 c -0.464,-0.077 -0.872,-0.144 -1.278,-0.212 -1.473,-0.249 -3.004,0.382 -3.643,1.567 -0.199,0.369 -0.329,0.826 -0.333,1.244 -0.028,2.964 -0.015,5.929 -0.015,8.894 0,0.23 0,0.46 0,0.767 -1.426,0 -2.813,0 -4.248,0 0,-5.344 0,-10.671 0,-16.055 1.08,0 2.162,0 3.332,0 0.122,0.522 0.25,1.107 0.399,1.686 0.043,0.163 0.148,0.311 0.226,0.465 0.156,-0.107 0.368,-0.179 0.46,-0.326 1.287,-2.046 3.328,-2.746 5.688,-1.87 -0.191,1.254 -0.386,2.526 -0.588,3.84 z"
   id="path7" />
	</g>
	<g
   id="g3711_6_">
		<g
   id="g3717_6_"
   transform="translate(217.8169,414.5117)">
			<path
   id="path3719_6_"
   fill="none"
   d="m -106.16,-315.971 c -21.043,19.753 -52.508,20.42 -70.301,1.477 -17.771,-18.936 -15.143,-50.307 5.898,-70.064 21.031,-19.751 52.509,-20.414 70.285,-1.477 17.79,18.941 15.155,50.311 -5.882,70.064" />
		</g>
		<g
   id="g3721_6_"
   transform="translate(196.3604,422.8438)">
			<path
   id="path3723_8_"
   fill="#e94f23"
   d="m -108.421,-333.513 h -10.405 c -2.055,4.306 -3.591,7.323 -4.244,8.2 -3.43,4.603 -19.295,0 -19.295,0 0,0 13.467,-31.484 22.85,-51.795 h -5.595 c -1.491,5.622 -6.604,9.771 -12.698,9.771 -7.249,0 -13.139,-5.892 -13.139,-13.142 0,-1.021 0.126,-2.005 0.343,-2.955 -13.8,17.886 -14.433,41.915 -0.376,56.877 14.396,15.344 39.26,15.889 58.166,2.259 -0.957,0.222 -1.951,0.344 -2.973,0.344 -6.014,0 -11.078,-4.045 -12.634,-9.559" />
		</g>
		<g
   id="g3725_6_"
   transform="translate(181.2622,468.375)">
			<path
   id="path3727_6_"
   fill="#e94f23"
   d="m -110.012,-429.375 h 8.743 c 2.596,-5.414 4.557,-9.191 5.331,-9.948 3.479,-3.39 19.292,0 19.292,0 0,0 -14.439,33.071 -23.822,53.331 h 7.086 c 1.489,-5.617 6.604,-9.779 12.693,-9.779 7.252,0 13.146,5.885 13.146,13.146 0,1.408 -0.236,2.765 -0.645,4.033 15.574,-18.074 16.896,-43.541 2.232,-59.158 -14.816,-15.775 -40.689,-15.905 -59.775,-1.039 0.971,-0.232 1.977,-0.361 3.02,-0.361 6.094,0 11.208,4.154 12.699,9.775" />
		</g>
		<g
   id="g3729_6_"
   transform="translate(169.7739,453.4414)">
		</g>
	</g>
	<g
   id="g8">
		<defs
   id="defs7">
			<path
   id="SVGID_1_"
   d="m 55.532,29.588 c -1.321,1.036 -2.625,2.137 -3.883,3.317 v 0 c -2.182,2.047 -4.133,4.227 -5.894,6.505 v 0 c -0.217,0.95 -0.341,1.935 -0.341,2.953 v 0 c 0,7.252 5.889,13.144 13.135,13.144 v 0 c 6.096,0 11.209,-4.148 12.699,-9.771 v 0 L 71.34,44.173 69.64,39 h 1.609 C 69.759,33.379 64.645,29.225 58.55,29.225 v 0 c -1.04,0 -2.048,0.129 -3.018,0.363" />
		</defs>
		<clipPath
   id="SVGID_2_">
			<use
   xlink:href="#SVGID_1_"
   overflow="visible"
   id="use7" />
		</clipPath>
		<g
   id="g3735_6_"
   clip-path="url(#SVGID_2_)">
			<g
   id="g3741_6_"
   transform="translate(171.7559,469.6426)">
				<path
   id="path3743_6_"
   fill="#e94f23"
   d="m -111.015,-432.043 -0.042,0.441 0.703,0.309 -0.806,1.093 -0.342,0.835 0.189,0.432 1.141,-0.256 2.057,0.203 0.817,0.068 -0.378,-0.514 0.535,-0.055 0.724,0.027 0.559,-0.219 -1.948,-1.14 -0.818,-0.185 c 0,0.002 -1.994,-1.156 -2.391,-1.039" />
			</g>
			<g
   id="g3745_6_"
   transform="translate(180.8877,464.29)">
				<path
   id="path3747_6_"
   fill="#e94f23"
   d="m -110.053,-420.774 -0.146,-0.066 -0.625,-0.271 -0.511,-0.082 -0.2,-0.299 -0.512,-0.082 -0.305,-0.051 -0.248,0.174 -0.266,0.01 -0.31,0.215 -0.315,0.002 -0.535,0.285 -0.648,0.32 -0.133,0.14 -0.088,0.409 0.019,0.162 0.306,0.051 0.491,-0.08 -0.065,0.309 0.129,0.393 0.492,-0.08 0.164,-0.292 0.209,-0.231 -0.066,-0.438 0.31,-0.214 0.4,-0.149 0.226,-0.068 -0.179,0.343 -0.144,0.189 -0.033,0.153 0.754,0.176 -0.35,0.156 -0.422,0.25 -0.265,0.756 -0.511,-0.084 -0.43,0.037 -0.172,-0.187 -0.254,-0.042 -0.14,-0.342 0.075,-0.359 -0.399,0.147 0.026,0.376 -0.167,0.293 -0.513,0.182 -0.227,0.069 -0.771,0.406 -0.759,0.091 -0.054,0.256 0.436,0.443 c 0,0 -0.109,0.514 -0.363,0.471 l -0.959,-0.208 -0.291,0.38 -0.33,1.063 0.256,0.041 0.212,0.246 0.479,-0.027 c 0,0 0.604,-0.113 0.816,-0.613 l 0.473,-0.24 0.217,-0.283 0.624,0.048 0.339,-0.106 0.595,0.682 0.444,0.392 -0.28,0.325 -0.42,-0.014 0.405,0.332 0.28,-0.328 0.3,-0.164 0.064,-0.309 -0.684,-1.014 0.259,-0.225 0.888,1.049 0.072,0.648 0.119,0.445 0.068,0.171 0.168,-0.293 0.18,-0.608 0.46,0.076 0.491,-0.082 -0.023,-0.641 0.589,-0.543 0.365,0.272 0.24,0.358 0.165,-0.17 0.373,-0.381 0.328,0.957 c 0,0 0.39,0.647 -0.332,0.318 l -0.499,-0.134 c 0,0 -0.499,-0.135 -0.871,0.123 l -0.614,0.167 -0.229,0.335 0.169,0.452 0.499,0.134 0.417,0.015 0.369,0.006 0.095,0.548 c 0,0 -0.381,1.054 -1.511,0.657 l -0.566,-0.305 c 0,0 -0.844,-0.508 -0.922,0.117 l -0.266,0.01 -0.324,-0.213 -0.15,-0.289 -0.551,-0.143 -0.383,-0.434 0.17,-0.556 -0.273,-0.204 -0.48,0.027 c 0,0 -0.223,-0.195 -0.726,-0.064 -0.502,0.131 -1.237,0.119 -1.237,0.119 l -0.471,-0.023 -0.465,0.455 -0.537,0.551 -1.311,0.956 -0.644,0.8 -0.142,0.668 c 0,0 -0.045,1.213 -0.395,1.369 l -0.047,0.471 0.443,1.4 c 0,0 0.486,1.194 1.225,0.941 l 0.93,0.1 0.769,-0.143 0.558,0.355 0.783,0.287 -0.119,0.566 -0.199,1.188 0.413,0.546 c 0,0 0.2,2.052 -0.724,3.176 l 0.023,1.384 c 0,0 -0.102,2.482 0.299,2.333 l -0.118,0.565 0.321,0.478 0.787,0.021 0.931,-0.168 0.681,-0.474 0.426,-0.517 0.662,-0.637 0.305,-0.692 0.12,-0.565 0.585,-0.276 0.528,-0.501 0.333,-0.582 0.141,-0.668 c 0,0 -0.129,-1.881 0.985,-2.656 0,0 2.46,-1.406 2.612,-3.135 l -1.164,0.023 -0.501,-0.135 0.015,-0.314 -0.707,-2.4 -0.344,-0.374 0.068,-0.573 -0.445,-1.137 0.463,-0.191 c 0,0 1.387,4.424 1.355,4.578 l 0.49,-0.081 0.718,-0.147 0.547,-0.337 0.411,-0.199 0.662,-0.636 0.24,-0.387 -0.406,-1.076 -0.535,0.287 -0.572,-0.041 -0.136,-0.605 -0.241,-0.359 -0.107,-0.494 -0.068,-0.172 0.492,-0.078 0.438,0.921 0.59,0.2 0.361,-0.205 0.086,0.598 0.721,0.33 0.573,0.041 0.673,0.055 0.117,0.443 0.064,0.701 0.367,0.005 0.32,-0.266 0.1,0.282 c 0,0 -0.207,1.984 0.084,2.351 l 0.188,0.615 0.087,0.334 0.23,0.407 0.382,-0.311 0.133,-0.879 0.172,-0.559 0.403,-0.411 0.693,-0.79 0.32,-0.27 0.399,-0.146 0.441,-0.087 0.281,0.416 0.158,0.504 0.197,0.563 0.158,0.502 0.268,-0.275 c 0,0 0.352,1.335 0.227,1.686 -0.127,0.351 -0.073,0.095 -0.073,0.095 l 0.157,0.503 0.158,1.249 0.613,0.842 0.119,-0.565 0.076,-0.359 -0.693,-0.961 0.15,-1.465 0.547,0.408 0.086,0.598 0.016,0.428 0.853,-0.553 0.233,-0.6 -0.096,-0.547 -0.799,-0.712 0.305,-0.696 0.24,-0.385 0.391,0.646 0.199,-0.445 0.688,-0.26 0.394,-0.361 c 0,0 0.696,-1.056 0.307,-1.703 l -0.245,-0.838 -0.369,-0.751 0.218,-0.282 -0.551,-0.143 -0.321,-0.477 0.416,-0.465 0.27,0.468 0.379,-0.046 0.32,0.479 c 0,0 0.353,0.444 0.428,0.72 0.024,0.09 0.02,0.163 -0.039,0.193 -0.236,0.12 0.531,-0.021 0.531,-0.021 l -0.207,-0.512 -0.271,-0.47 -0.178,-0.4 0.118,-0.564 0.422,-0.253 0.149,-0.453 -0.063,-0.701 -0.633,-1.007 -0.555,-0.621 -0.51,-0.082 c 0,0 -0.395,-1.127 0.494,-1.09 l 0.561,0.091 0.449,0.126 -0.166,-0.717 0.316,-0.002 0.264,0.254 0.195,-0.182 0.313,1.275 1.166,1.465 0.011,-0.797 -0.825,-1.09 -0.135,-0.607 0.338,-0.104 0.494,-0.343 -0.445,-0.393 -0.082,-0.598 c 0,0 -1.416,-0.549 -1.834,-0.564 l -0.554,0.124 -0.511,-0.083 -0.874,-0.354 c 0,0 -1.198,0.178 -1.298,-0.105 l -0.834,-0.293 -0.229,0.335 -1.326,-0.216 0.146,-0.189 -0.487,-0.186 -1.178,0.076 -0.918,-0.149 0.32,-0.267 -0.907,-0.467 -0.923,0.383 -1.075,0.092 -0.871,0.125 0.341,0.638 -0.287,0.113 -0.399,-0.862 -0.38,0.046 c 0,0 0.486,0.448 -0.137,0.403 l -0.623,-0.049 -0.299,0.164 -0.859,0.072 -0.686,-0.004 -0.281,-0.417 -0.345,0.635 -0.692,-0.218 0.338,-0.105 z" />
			</g>
			<g
   id="g3749_6_"
   transform="translate(176.0181,464.6943)">
				<path
   id="path3751_6_"
   fill="#e94f23"
   d="m -110.565,-421.625 -0.411,0.224 -0.299,0.391 0.075,0.437 -0.438,0.445 0.232,0.101 -0.605,0.084 0.539,0.177 0.678,0.007 0.254,-0.179 -0.283,-0.354 0.065,-0.492 -0.096,-0.158 z" />
			</g>
			<g
   id="g3753_6_"
   transform="translate(174.9434,464.4834)">
				<path
   id="path3755_6_"
   fill="#e94f23"
   d="m -110.679,-421.181 -0.211,-0.15 0.05,0.369 -0.372,0.184 0.585,0.082 0.275,-0.459 z" />
			</g>
			<g
   id="g3757_6_"
   transform="translate(174.4907,466.2529)">
				<path
   id="path3759_6_"
   fill="#e94f23"
   d="m -110.726,-424.906 -0.159,0.452 0.562,0.127 0.49,0.041 0.138,-0.287 -0.423,-0.183 -0.354,-0.445 z" />
			</g>
			<g
   id="g3761_6_"
   transform="translate(161.5371,474.7627)">
				<path
   id="path3763_6_"
   fill="#e94f23"
   d="m -112.092,-442.823 0.88,0.174 c 0,0 1.246,0.755 0.771,1.299 l -0.589,0.369 -0.604,0.252 c 0,0 -0.683,0.104 -0.652,0.27 0.03,0.164 -0.019,0.082 -0.019,0.082 l -0.584,0.203 c 0,0 -3.322,-0.225 -3.994,1.105 l -1.449,1.144 c 0,0 -0.666,1.132 -0.732,1.101 l 0.705,-0.42 1.131,-1.016 0.195,0.192 c 0,0 -1.984,2.335 -2.182,2.209 -0.197,-0.125 -0.084,-0.015 -0.084,-0.015 l -0.002,1.08 0.233,0.936 0.312,0.206 0.147,1.088 -0.501,1.028 -0.023,0.414 0.109,0.443 0.411,0.235 0.131,0.128 -0.12,0.254 c 0,0 -0.771,1.334 -1.479,0.941 l -0.79,0.507 0.045,0.28 -0.465,0.016 -0.357,0.426 -0.826,2.529 0.251,1.833 c 0,0 -3.278,5.044 -3.228,5.903 0.051,0.861 -0.035,0.103 -0.035,0.103 l -0.241,0.503 -0.33,-0.121 0.176,0.376 c 0,0 -0.081,1.776 0.064,1.954 0.147,0.177 0.225,0.521 0.225,0.521 l 0.672,-1.363 0.06,-0.617 0.831,-0.871 h 0.548 l 0.518,-0.1 0.317,-1.07 0.55,0.844 0.604,-0.285 c 0,0 1.57,-1.395 1.785,-1.383 l 1.057,0.463 1.55,-1.277 0.622,-0.368 1.072,-0.466 0.374,-0.543 -0.032,-0.977 -0.697,-1.02 0.137,-0.238 -0.258,-0.488 -0.494,-0.117 0.42,-0.297 -0.491,-0.414 0.682,-0.071 0.368,-1.088 -0.453,-0.684 -0.176,-0.44 0.271,-0.273 0.125,-0.518 0.123,-0.287 -0.394,-0.352 -0.454,-0.617 0.125,-0.482 -0.734,0.189 -0.182,-0.078 0.305,-0.275 0.35,-0.094 -1.093,-0.295 -0.516,0.1 -0.06,-0.396 -0.543,-0.33 0.024,-0.415 0.993,-0.745 0.023,-0.414 -0.391,-0.452 0.689,-0.47 0.813,0.023 0.053,-0.117 -1.323,-0.289 -0.323,-0.521 0.631,-0.864 c 0,0 2.035,-0.465 2.183,-0.452 l 0.435,0.829 0.23,0.094 0.172,-0.17 c 0,0 0.766,0.785 0.361,1.131 l -0.591,0.498 0.263,0.158 1.377,-0.808 1.459,0.219 c 0,0 1.537,-0.481 2.556,0.216 l 0.22,-0.158 c 0,0 0.762,0.109 0.959,0.235 l 0.428,0.218 -0.664,0.055 0.972,0.416 0.228,-0.654 -0.619,-0.676 0.531,0.017 1.427,1.097 0.896,0.037 0.157,-0.453 0.564,-0.797 -0.727,-0.408 0.186,-0.154 0.602,-0.051 c 0,0 -0.832,-0.919 -1.484,-0.717 l -0.965,0.065 -1.148,0.12 0.376,-0.575 0.284,-0.06 -0.175,-0.509 -0.142,-0.409 0.285,-0.191 0.234,-0.074 0.615,-0.002 0.939,0.348 0.396,0.287 0.152,-0.154 0.968,0.715 0.254,-0.258 -1.619,-1.488 -0.45,-0.847 c 0,0 -0.562,-0.182 -0.472,-0.63 l -0.173,-0.545 -1.095,-1.008 c 0,0 -0.082,-1.092 -0.359,-1.33 0,0 -1.472,-1.311 -1.609,-1.109 l -0.285,0.226 -0.23,-0.19 0.086,-0.152 -0.46,-0.318 -0.173,0.371 -0.415,-0.003 -1.153,-0.591 -0.515,0.032 0.225,0.425 -1.432,-0.734 -0.089,0.187 z" />
			</g>
		</g>
	</g>
	<g
   id="g3785_6_">
		<g
   id="g9">
			<defs
   id="defs8">
				<path
   id="SVGID_3_"
   d="m 87.878,82.383 0.061,6.948 c 1.555,5.514 6.62,9.56 12.633,9.56 v 0 c 1.023,0 2.018,-0.124 2.975,-0.345 v 0 c 1.895,-1.373 3.732,-2.876 5.496,-4.527 v 0 c 1.434,-1.358 2.775,-2.771 4.033,-4.235 v 0 c 0.408,-1.269 0.645,-2.625 0.645,-4.033 v 0 c 0,-7.262 -5.896,-13.145 -13.148,-13.145 v 0 c -6.091,-10e-4 -11.204,4.16 -12.695,9.777 m 8.318,3.367 c 0,-2.425 1.953,-4.378 4.375,-4.378 v 0 c 2.42,0 4.377,1.953 4.377,4.378 v 0 c 0,2.423 -1.957,4.389 -4.377,4.389 v 0 c -2.422,0 -4.375,-1.966 -4.375,-4.389" />
			</defs>
			<clipPath
   id="SVGID_4_">
				<use
   xlink:href="#SVGID_3_"
   overflow="visible"
   id="use8" />
			</clipPath>
			<g
   id="g3787_6_"
   clip-path="url(#SVGID_4_)">
				<g
   id="g3793_6_"
   transform="translate(193.7031,440.7549)">
					<path
   id="path3795_6_"
   fill="#e94f23"
   d="m -108.702,-371.224 0.693,-0.435 c 0,0 1.314,-0.294 1.355,0.344 l -0.148,0.594 -0.232,0.531 c 0,0 -0.383,0.487 -0.256,0.571 0.127,0.086 0.042,0.065 0.042,0.065 l -0.254,0.489 c 0,0 -2.333,1.91 -1.91,3.162 l -0.211,1.612 c 0,0 0.297,1.126 0.233,1.148 l 0.189,-0.701 0.086,-1.336 h 0.254 c 0,0 0.212,2.692 0,2.736 -0.211,0.042 -0.063,0.042 -0.063,0.042 l 0.701,0.68 0.764,0.445 0.339,-0.064 0.808,0.596 0.339,0.955 0.254,0.275 0.362,0.213 0.423,-0.107 h 0.172 l 0.084,0.233 c 0,0 0.359,1.318 -0.36,1.508 l -0.191,0.806 0.212,0.149 -0.297,0.296 0.043,0.489 1.103,2.103 1.358,0.997 c 0,0 1.125,5.199 1.719,5.709 0.595,0.511 0.043,0.085 0.043,0.085 l 0.17,0.468 -0.297,0.126 0.359,0.128 c 0,0 1.104,1.168 1.317,1.188 0.212,0.021 0.488,0.191 0.488,0.191 l -0.446,-1.272 -0.361,-0.425 -0.021,-1.063 0.361,-0.34 0.275,-0.382 -0.488,-0.869 0.914,0.19 0.211,-0.554 c 0,0 0.128,-1.844 0.276,-1.972 l 0.998,-0.361 0.19,-1.762 0.169,-0.615 0.405,-0.955 -0.107,-0.574 -0.657,-0.592 -1.125,-0.215 -0.063,-0.23 -0.488,-0.149 -0.402,0.233 0.084,-0.447 -0.595,0.042 0.403,-0.466 -0.467,-0.914 -0.742,-0.146 -0.404,-0.17 v -0.34 l -0.254,-0.404 -0.107,-0.254 -0.486,0.021 -0.701,-0.107 -0.233,-0.382 -0.361,0.575 -0.169,0.061 0.021,-0.359 0.17,-0.276 -0.914,0.489 -0.275,0.382 -0.297,-0.212 -0.572,0.128 -0.256,-0.277 0.171,-1.081 -0.256,-0.275 -0.552,-0.044 0.148,-0.722 0.552,-0.488 -0.042,-0.105 -1.061,0.635 -0.553,-0.126 -0.148,-0.935 c 0,0 1.041,-1.549 1.146,-1.632 l 0.827,0.253 0.213,-0.084 v -0.213 c 0,0 1.019,0.021 0.978,0.488 l -0.065,0.678 0.275,-0.063 0.384,-1.359 1.102,-0.764 c 0,0 0.701,-1.252 1.825,-1.444 l 0.044,-0.233 c 0,0 0.572,-0.403 0.784,-0.445 l 0.427,-0.126 -0.404,0.444 0.912,-0.34 -0.277,-0.552 -0.848,-0.042 0.361,-0.318 1.656,-0.193 0.614,-0.529 -0.191,-0.383 -0.147,-0.848 -0.744,0.189 0.021,-0.213 0.361,-0.402 c 0,0 -1.146,-0.063 -1.443,0.468 l -0.594,0.636 -0.68,0.787 -0.127,-0.594 0.147,-0.216 -0.445,-0.21 -0.36,-0.17 0.064,-0.299 0.105,-0.19 0.402,-0.382 0.85,-0.361 0.445,-0.062 v -0.192 l 1.104,-0.149 v -0.317 l -2.038,0.063 -0.848,-0.254 c 0,0 -0.488,0.233 -0.722,-0.106 l -0.468,-0.233 -1.38,0.044 c 0,0 -0.762,-0.638 -1.102,-0.617 0,0 -1.826,0.085 -1.783,0.296 l -0.043,0.321 -0.276,0.021 -0.043,-0.15 -0.509,0.086 0.127,0.34 -0.274,0.254 -1.146,0.341 -0.318,0.339 0.425,0.127 -1.422,0.426 0.063,0.169 z" />
				</g>
				<g
   id="g3797_6_"
   transform="translate(215.8179,441.1836)">
					<path
   id="path3799_6_"
   fill="#e94f23"
   d="m -106.37,-372.125 -0.145,-0.036 -0.609,-0.152 h -0.471 l -0.236,-0.236 h -0.47 -0.282 l -0.188,0.188 -0.235,0.048 -0.234,0.235 -0.283,0.047 -0.422,0.33 -0.518,0.377 -0.096,0.141 v 0.376 l 0.047,0.142 h 0.282 l 0.424,-0.142 v 0.282 l 0.188,0.33 0.425,-0.141 0.094,-0.283 0.142,-0.235 -0.142,-0.376 0.235,-0.236 0.329,-0.189 0.188,-0.094 -0.094,0.33 -0.094,0.189 v 0.141 l 0.705,0.046 -0.281,0.189 -0.33,0.283 -0.094,0.706 h -0.471 l -0.377,0.094 -0.188,-0.143 h -0.234 l -0.188,-0.281 v -0.33 l -0.329,0.189 0.094,0.328 -0.094,0.283 -0.423,0.236 -0.188,0.094 -0.612,0.471 -0.658,0.188 v 0.236 l 0.471,0.328 c 0,0 0,0.472 -0.235,0.472 l -0.896,-0.047 -0.188,0.377 -0.094,0.987 h 0.236 l 0.233,0.189 0.423,-0.095 c 0,0 0.52,-0.188 0.613,-0.657 l 0.377,-0.283 0.141,-0.282 0.564,-0.049 0.281,-0.141 0.659,0.519 0.472,0.283 -0.188,0.328 -0.378,0.047 0.425,0.235 0.188,-0.329 0.235,-0.189 v -0.281 l -0.8,-0.801 0.188,-0.234 0.988,0.801 0.188,0.564 0.188,0.375 0.094,0.142 0.094,-0.282 0.048,-0.564 h 0.424 l 0.423,-0.141 -0.141,-0.565 0.423,-0.565 0.378,0.188 0.281,0.283 0.115,-0.173 0.262,-0.394 0.471,0.802 c 0,0 0.471,0.519 -0.236,0.331 l -0.471,-0.048 c 0,0 -0.471,-0.047 -0.752,0.235 l -0.518,0.236 -0.142,0.328 0.235,0.377 0.471,0.048 0.377,-0.048 0.328,-0.048 0.188,0.473 c 0,0 -0.142,0.987 -1.224,0.8 l -0.564,-0.189 c 0,0 -0.848,-0.328 -0.801,0.236 l -0.234,0.047 -0.328,-0.141 -0.189,-0.236 -0.519,-0.047 -0.422,-0.33 0.046,-0.517 -0.283,-0.143 -0.422,0.095 c 0,0 -0.235,-0.142 -0.66,0.048 -0.423,0.188 -1.082,0.281 -1.082,0.281 l -0.424,0.048 -0.329,0.471 -0.376,0.564 -0.987,1.035 -0.425,0.8 v 0.612 c 0,0 0.189,1.083 -0.094,1.271 l 0.047,0.422 0.66,1.178 c 0,0 0.658,0.989 1.27,0.657 l 0.846,-0.046 0.66,-0.236 0.565,0.236 0.751,0.141 v 0.518 l 0.048,1.083 0.472,0.423 c 0,0 0.564,1.789 -0.048,2.918 l 0.282,1.224 c 0,0 0.377,2.212 0.706,2.024 v 0.518 l 0.376,0.376 0.707,-0.094 0.799,-0.282 0.518,-0.518 0.283,-0.519 0.471,-0.659 0.143,-0.658 v -0.519 l 0.469,-0.329 0.377,-0.518 0.188,-0.564 v -0.611 c 0,0 -0.471,-1.646 0.376,-2.495 0,0 1.932,-1.601 1.742,-3.153 l -1.035,0.188 -0.471,-0.046 -0.049,-0.281 -1.081,-2.024 -0.378,-0.282 -0.045,-0.52 -0.613,-0.94 0.377,-0.236 c 0,0 2.072,3.72 2.072,3.86 l 0.424,-0.141 0.611,-0.236 0.424,-0.376 0.329,-0.235 0.471,-0.66 0.142,-0.375 -0.565,-0.895 -0.423,0.328 -0.519,0.049 -0.235,-0.518 -0.283,-0.281 -0.188,-0.425 -0.094,-0.142 0.424,-0.141 0.564,0.754 0.564,0.092 0.283,-0.234 0.189,0.518 0.705,0.188 0.518,-0.047 0.611,-0.047 0.189,0.377 0.188,0.613 0.33,-0.048 0.235,-0.282 0.141,0.234 c 0,0 0.189,1.789 0.519,2.072 l 0.282,0.515 0.142,0.283 0.281,0.331 0.285,-0.331 -0.048,-0.798 0.048,-0.52 0.281,-0.425 0.47,-0.798 0.235,-0.282 0.33,-0.188 0.377,-0.143 0.328,0.33 0.236,0.421 0.281,0.473 0.236,0.423 0.188,-0.281 c 0,0 0.564,1.128 0.52,1.458 -0.049,0.329 -0.049,0.095 -0.049,0.095 l 0.236,0.423 0.375,1.083 0.707,0.657 v -0.515 -0.332 l -0.801,-0.751 -0.142,-1.318 0.565,0.283 0.188,0.516 0.094,0.377 0.659,-0.612 0.094,-0.563 -0.188,-0.471 -0.848,-0.518 0.142,-0.658 0.141,-0.376 0.471,0.515 0.095,-0.421 0.563,-0.33 0.283,-0.378 c 0,0 0.423,-1.034 -0.047,-1.551 l -0.376,-0.706 -0.472,-0.614 0.142,-0.281 -0.518,-0.049 -0.377,-0.375 0.283,-0.472 0.328,0.378 0.33,-0.094 0.377,0.377 c 0,0 0.396,0.343 0.516,0.574 0.04,0.078 0.049,0.143 0.002,0.179 -0.188,0.141 0.471,-0.096 0.471,-0.096 l -0.283,-0.423 -0.33,-0.375 -0.234,-0.331 v -0.519 l 0.33,-0.283 0.047,-0.424 -0.188,-0.61 -0.753,-0.802 -0.611,-0.469 h -0.472 c 0,0 -0.563,-0.943 0.235,-1.037 h 0.518 l 0.424,0.047 -0.282,-0.611 0.282,-0.047 0.281,0.188 0.143,-0.188 0.518,1.081 1.316,1.13 -0.141,-0.705 -0.939,-0.848 -0.236,-0.518 0.282,-0.141 0.376,-0.376 -0.47,-0.284 -0.188,-0.516 c 0,0 -1.365,-0.283 -1.741,-0.236 l -0.472,0.189 h -0.469 l -0.848,-0.189 c 0,0 -1.035,0.328 -1.177,0.094 l -0.801,-0.141 -0.14,0.33 h -1.225 l 0.094,-0.189 -0.47,-0.094 -1.036,0.236 h -0.848 l 0.235,-0.283 -0.896,-0.283 -0.752,0.471 -0.941,0.234 -0.754,0.234 0.424,0.521 -0.234,0.14 -0.52,-0.705 -0.328,0.094 c 0,0 0.518,0.329 -0.048,0.378 l -0.565,0.045 -0.235,0.188 -0.753,0.189 -0.612,0.094 -0.329,-0.329 -0.189,0.612 -0.658,-0.094 0.283,-0.143 z" />
				</g>
				<g
   id="g3801_6_"
   transform="translate(218.8843,425.3008)">
					<path
   id="path3803_6_"
   fill="#e94f23"
   d="m -106.047,-338.688 -0.236,0.52 -0.564,0.235 c 0,0 -0.517,1.694 -0.189,2.022 0,0 0.189,0.472 0.613,-0.094 l 0.283,-0.612 0.094,-0.423 0.096,-0.473 0.233,-0.468 0.048,-0.378 -0.048,-0.424 z" />
				</g>
				<g
   id="g3805_6_"
   transform="translate(196.9165,433.0918)">
					<path
   id="path3807_6_"
   fill="#e94f23"
   d="m -108.363,-355.09 0.659,-0.142 0.705,0.661 0.612,-0.049 -0.471,-0.282 -0.142,-0.282 -0.376,-0.094 -0.188,-0.283 z" />
				</g>
				<g
   id="g3809_6_"
   transform="translate(198.7461,432.2402)">
					<path
   id="path3811_6_"
   fill="#e94f23"
   d="m -108.17,-353.297 0.47,-0.047 0.236,-0.047 -0.141,-0.377 -0.565,0.143 z" />
				</g>
				<g
   id="g3813_6_"
   transform="translate(212.1997,436.6689)">
					<path
   id="path3815_6_"
   fill="#e94f23"
   d="m -106.751,-362.62 v 0.33 l 0.234,-0.094 v -0.283 z" />
				</g>
			</g>
		</g>
	</g>
	<g
   id="g3819_6_">
		<g
   id="g3849_6_"
   transform="translate(186.4976,429.084)">
			<path
   id="path3851_6_"
   fill="none"
   d="m -109.46,-346.651 h 0.378 v -0.05 h 3.378 c 9.385,-20.26 23.823,-53.331 23.823,-53.331 0,0 -15.812,-3.39 -19.291,0 -0.776,0.757 -2.736,4.534 -5.332,9.948 h 1.717 v 6.736 h -4.865 c -9.384,20.311 -22.852,51.795 -22.852,51.795 0,0 15.867,4.603 19.297,0 0.653,-0.877 2.189,-3.895 4.244,-8.202 h -0.497 z" />
		</g>
		<g
   id="g10">
			<g
   id="g3869_6_"
   transform="translate(434.4624,451.9961)">
				<path
   id="path3871_6_"
   fill="#e94f23"
   d="m -83.328,-394.891 c -19.522,0 -22.826,3.431 -25.804,16.063 -3.809,16.155 1.253,19.002 16.133,16.956 l -2.506,8.918 c 0,0 -4.872,0.139 -10.494,0.229 -8.674,0.143 -22.857,-2.925 -17.844,-27.019 2.035,-9.786 6.161,-14.448 7.227,-15.771 7.204,-8.85 22.994,-8.147 35.566,-8.147 z" />
			</g>
			<g
   id="g3873_6_"
   transform="translate(347.4546,473.4766)">
				<path
   id="path3875_6_"
   fill="#e94f23"
   d="m -92.497,-440.116 -4.268,15.116 8.826,0.02 -2.214,8.129 c 0,0 -4.992,0.019 -8.908,0.009 -2.547,9.399 -3.951,14.511 -5.488,20.091 -3.557,12.882 -3.078,14.77 7.145,13.442 l -2.492,8.686 c 0,0 -4.73,0.176 -10.216,0.313 -6.749,0.177 -13.663,-3.23 -10.528,-14.576 2.314,-8.434 9.138,-33.379 10.528,-38.283 2.977,-10.484 1.91,-12.185 17.615,-12.947" />
			</g>
			<g
   id="g3877_6_"
   transform="translate(322.0693,473.4805)">
				<path
   id="path3879_6_"
   fill="#e94f23"
   d="m -95.173,-440.123 -4.259,15.107 8.818,0.025 -2.215,8.127 c 0,0 -4.989,0.026 -8.908,0.008 -2.54,9.402 -3.947,14.512 -5.492,20.094 -3.554,12.885 -3.071,14.771 7.149,13.448 l -2.492,8.681 c 0,0 -4.728,0.175 -10.211,0.311 -6.751,0.178 -13.661,-3.223 -10.536,-14.573 2.315,-8.433 9.141,-33.374 10.536,-38.284 2.975,-10.483 1.913,-12.188 17.61,-12.944" />
			</g>
			<g
   id="g3881_6_"
   transform="translate(260.064,459.8945)">
				<path
   id="path3883_6_"
   fill="#e94f23"
   d="m -101.708,-411.52 h 22.938 c 10.632,0.03 19.205,2.615 16.827,14.423 -1.548,7.686 -4.557,16.626 -5.757,20.881 -1.264,4.461 -3.241,8.914 -0.607,14.143 0.398,0.807 0.848,1.077 0.848,1.077 h -14.998 l -1.156,-5.521 c -35.484,20.234 -45.231,-24.946 -2.43,-24.413 l 8.215,-0.006 c 5.109,-13.642 -1.788,-12.286 -26.287,-12.306 z m 21.567,27.591 c 0,0 -6.625,-0.236 -9.679,0.271 -13.739,2.277 -13.658,14.942 -5.123,15.228 13.99,0.48 14.802,-15.499 14.802,-15.499" />
			</g>
			<g
   id="g3885_6_"
   transform="translate(359.0288,459.8945)">
				<path
   id="path3887_6_"
   fill="#e94f23"
   d="m -91.278,-411.52 h 22.938 c 10.629,0.03 19.201,2.615 16.826,14.423 -1.551,7.686 -4.554,16.626 -5.755,20.881 -1.27,4.461 -3.243,8.914 -0.604,14.143 0.398,0.807 0.841,1.077 0.841,1.077 h -14.991 l -1.157,-5.521 c -35.49,20.234 -45.239,-24.946 -2.431,-24.413 l 8.213,-0.006 c 5.104,-13.642 -1.787,-12.286 -26.293,-12.306 z m 21.567,27.591 c 0,0 -6.633,-0.236 -9.675,0.271 -13.739,2.277 -13.666,14.942 -5.132,15.228 13.987,0.48 14.807,-15.499 14.807,-15.499" />
			</g>
		</g>
	</g>
</g>
</svg>
