<?xml version="1.0" encoding="utf-8"?>
<!-- Generator: Adobe Illustrator 16.0.0, SVG Export Plug-In . SVG Version: 6.00 Build 0)  -->
<!DOCTYPE svg PUBLIC "-//W3C//DTD SVG 1.1//EN" "http://www.w3.org/Graphics/SVG/1.1/DTD/svg11.dtd">
<svg version="1.1" id="Ebene_1" xmlns="http://www.w3.org/2000/svg" xmlns:xlink="http://www.w3.org/1999/xlink" x="0px" y="0px"
	 width="382.988px" height="148.965px" viewBox="0 0 382.988 148.965" enable-background="new 0 0 382.988 148.965"
	 xml:space="preserve">
<g id="Linke">
	<polyline fill="#9D9D9C" points="208.393,44.368 190.077,49.925 206.772,54.849 208.393,44.368 	"/>
	<path fill-rule="evenodd" clip-rule="evenodd" d="M288.678,87.366c3.082,0,6.014-2.445,6.502-5.529
		c0.52-3.279-1.744-5.677-4.924-5.677c-2.887,0-5.785,2.546-6.258,5.53C283.5,84.821,285.545,87.366,288.678,87.366 M261.58,86.829
		h17.617l1.311-8.711h-8.135l0.848-5.629h7.299l1.309-8.709h-7.297l0.773-5.138h8.135l1.311-8.71h-17.619L261.58,86.829z
		 M259.744,86.829l-5.587-19.086l10.257-17.812h-9.994l-7.569,15.707h-0.14l-0.017,0.099l0.108-0.099l2.362-15.707h-9.481
		l-5.552,36.897h9.482l2.548-16.932h0.094l3.309,16.932H259.744z M205.643,86.829h9.112l1.626-10.815
		c0.522-3.476,0.619-6.899,0.911-10.375l0.108-0.097l3.861,21.287h9.112l5.552-36.897h-9.112l-1.412,9.396
		c-0.64,4.257-0.577,8.465-0.846,12.723l-0.106,0.098l-4.235-22.216h-9.018L205.643,86.829z M188.913,86.829l1.31-8.711h-7.113
		l4.242-28.187h-9.482l-5.554,36.897H188.913z M144.388,86.829h17.618l1.31-8.711h-8.135l0.847-5.629h7.3l1.31-8.709h-7.299
		l0.772-5.138h8.137l1.31-8.71h-17.618L144.388,86.829z M140.612,86.829l5.551-36.897h-9.482l-5.553,36.897H140.612z
		 M117.736,59.131c4.323,0,4.227,5.578,3.622,9.59c-0.522,3.475-2.119,9.15-6.451,9.199L117.736,59.131z M104.083,86.829h8.275
		c5.766,0,16.18-1.567,18.744-18.596c1.679-11.158-3.059-18.302-13.843-18.302h-7.623L104.083,86.829z M201.808,86.829l4.678-30.144
		h-9.484l-4.679,30.144H201.808z"/>
	<g>
		<polyline points="107.363,96.835 108.422,96.835 108.422,95.903 104.938,95.903 104.938,96.835 105.998,96.835 105.998,103.485 
			104.938,103.485 104.938,104.418 111.077,104.418 111.077,102.071 110.083,102.071 110.083,103.435 107.363,103.435 
			107.363,96.835 		"/>
		<path fill-rule="evenodd" clip-rule="evenodd" d="M115.741,100.831l0.589-1.737c0.024-0.102,0.076-0.269,0.165-0.522
			c0.191-0.614,0.204-0.689,0.319-1.06l0.14-0.537l0.129,0.537l0.141,0.523l0.14,0.536l0.153,0.522l0.511,1.737H115.741
			 M113.877,103.485h-1.061v0.933h3.016v-0.933h-0.921l0.536-1.684h2.847l0.522,1.684h-0.931v0.933h3.448v-0.933h-1.1l-2.425-7.635
			h-1.404L113.877,103.485z"/>
		<path d="M123.158,96.835h1.061v6.65h-1.061v0.933h3.128v-0.933h-1.071v-4.454l-0.014-0.754v-0.894l0.473,0.906l0.485,0.895
			l0.484,0.905l0.473,0.907l1.902,3.421h1.252v-7.583h1.071v-0.932h-3.115v0.932h1.062v4.06l0.012,0.688v0.817
			c-0.396-0.753-0.499-0.956-0.881-1.673l-0.433-0.841l-0.449-0.843l-1.772-3.141h-2.606V96.835"/>
		<path fill-rule="evenodd" clip-rule="evenodd" d="M135.558,96.887h0.537c0.639,0,0.829,0.024,1.174,0.103
			c1.138,0.267,1.788,1.455,1.788,3.23c0,1.25-0.381,2.232-1.086,2.781c-0.42,0.332-0.841,0.434-1.876,0.434h-0.537V96.887
			 M133.132,96.835h1.062v6.65h-1.062v0.933h3.421c0.371-0.013,0.729-0.052,1.062-0.114c1.724-0.346,2.821-1.967,2.833-4.136
			c0-1.521-0.535-2.784-1.506-3.563c-0.345-0.269-0.752-0.459-1.187-0.562c-0.384-0.09-0.779-0.127-1.202-0.141h-3.421V96.835z"/>
		<polyline points="147.739,95.903 141.739,95.903 141.739,96.835 142.8,96.835 142.8,103.485 141.739,103.485 141.739,104.417 
			147.855,104.417 147.855,102.056 146.883,102.056 146.883,103.435 144.164,103.435 144.164,100.46 146.91,100.46 146.91,99.478 
			144.164,99.478 144.164,96.887 146.782,96.887 146.782,97.983 147.739,97.983 147.739,95.903 		"/>
		<path d="M154.417,96.503c-0.471-0.512-1.071-0.754-1.851-0.754c-1.48,0-2.504,0.908-2.504,2.234c0,0.588,0.206,1.086,0.601,1.506
			c0.385,0.384,0.705,0.563,2.516,1.354c0.894,0.383,1.188,0.729,1.188,1.379c0,0.832-0.561,1.34-1.455,1.34
			c-1.186,0-1.966-0.738-1.966-1.875h-0.817v2.73h0.817v-0.727c0.587,0.639,1.175,0.893,2.093,0.893
			c1.582,0,2.631-1.008,2.631-2.527c0-0.627-0.18-1.123-0.537-1.544c-0.369-0.422-0.79-0.665-2.577-1.456
			c-0.881-0.396-1.137-0.677-1.137-1.199c0-0.678,0.537-1.111,1.367-1.111c0.969,0,1.581,0.561,1.671,1.557h0.779v-2.398h-0.818
			V96.503"/>
		<polyline points="156.952,96.847 158.012,96.847 160.464,104.456 161.879,104.456 164.395,96.847 165.455,96.847 165.455,95.903 
			162.443,95.903 162.443,96.847 163.362,96.847 161.383,102.974 159.442,96.847 160.375,96.847 160.375,95.903 156.952,95.903 
			156.952,96.847 		"/>
		<polyline points="172.87,95.903 166.87,95.903 166.87,96.835 167.928,96.835 167.928,103.485 166.87,103.485 166.87,104.417 
			172.984,104.417 172.984,102.056 172.014,102.056 172.014,103.435 169.294,103.435 169.294,100.46 172.04,100.46 172.04,99.478 
			169.294,99.478 169.294,96.887 171.912,96.887 171.912,97.983 172.87,97.983 172.87,95.903 		"/>
		<path fill-rule="evenodd" clip-rule="evenodd" d="M177.66,96.887h0.753c0.6,0,0.79,0.013,1.071,0.075
			c0.626,0.115,0.996,0.627,0.996,1.342c0,0.434-0.128,0.791-0.37,1.02c-0.32,0.334-0.65,0.409-1.697,0.409h-0.753V96.887
			 M175.233,96.835h1.061v6.65h-1.061v0.933h3.357v-0.933h-0.981v-2.744h1.519l1.455,3.677h2.119v-0.933h-1.009l-1.353-2.936
			c0.97-0.294,1.544-1.135,1.544-2.209c0-0.766-0.293-1.43-0.841-1.863c-0.308-0.229-0.652-0.396-1.035-0.459
			c-0.485-0.09-0.806-0.115-1.915-0.115h-2.86V96.835z"/>
		<path fill-rule="evenodd" clip-rule="evenodd" d="M186.67,100.462h0.624c0.716,0,0.997,0.023,1.303,0.1
			c0.548,0.154,0.907,0.703,0.907,1.395c0,0.42-0.143,0.803-0.385,1.045c-0.332,0.346-0.727,0.434-1.825,0.434h-0.624V100.462
			 M186.67,96.887h0.586c1.429,0,1.878,0.317,1.878,1.276c0,0.944-0.512,1.314-1.84,1.314h-0.624V96.887z M184.256,96.835h1.06v6.65
			h-1.06v0.933h2.654c1.406,0,1.534-0.013,2.172-0.14c1.086-0.229,1.838-1.176,1.838-2.322c0-1.1-0.601-1.828-1.737-2.109
			c0.934-0.344,1.329-0.893,1.329-1.824c0-0.32-0.065-0.639-0.18-0.934c-0.114-0.254-0.293-0.472-0.51-0.65
			c-0.485-0.395-1.072-0.521-2.324-0.535h-3.242V96.835z"/>
		<path fill-rule="evenodd" clip-rule="evenodd" d="M195.109,100.831l0.587-1.737c0.026-0.102,0.077-0.269,0.166-0.522
			c0.192-0.614,0.203-0.689,0.32-1.06l0.139-0.537l0.129,0.537l0.141,0.523l0.14,0.536l0.152,0.522l0.512,1.737H195.109
			 M193.246,103.485h-1.061v0.933h3.014v-0.933h-0.919l0.535-1.684h2.848l0.521,1.684h-0.931v0.933h3.447v-0.933h-1.099
			l-2.425-7.635h-1.404L193.246,103.485z"/>
		<path d="M202.269,96.835h1.06v6.65h-1.06v0.933h3.127v-0.933h-1.069v-4.454l-0.015-0.754v-0.894l0.473,0.906l0.485,0.895
			l0.483,0.905l0.473,0.907l1.902,3.421h1.252v-7.583h1.073v-0.932h-3.115v0.932h1.06v4.06l0.013,0.688v0.817
			c-0.397-0.753-0.498-0.956-0.882-1.673l-0.433-0.841l-0.447-0.843l-1.774-3.141h-2.605V96.835"/>
		<path fill-rule="evenodd" clip-rule="evenodd" d="M214.545,96.887h0.534c0.639,0,0.83,0.024,1.175,0.103
			c1.137,0.267,1.787,1.455,1.787,3.23c0,1.25-0.384,2.232-1.085,2.781c-0.421,0.332-0.841,0.434-1.877,0.434h-0.534V96.887
			 M212.12,96.835h1.06v6.65h-1.06v0.933h3.42c0.37-0.013,0.727-0.052,1.06-0.114c1.725-0.346,2.821-1.967,2.834-4.136
			c0-1.521-0.536-2.784-1.506-3.563c-0.345-0.269-0.754-0.459-1.188-0.562c-0.383-0.09-0.778-0.127-1.2-0.141h-3.42V96.835z"/>
		<polyline points="227.692,96.835 228.754,96.835 228.754,95.903 225.318,95.903 225.318,96.835 226.378,96.835 226.378,103.485 
			225.318,103.485 225.318,104.418 228.754,104.418 228.754,103.485 227.692,103.485 227.692,100.423 231.115,100.423 
			231.115,103.485 230.054,103.485 230.054,104.418 233.49,104.418 233.49,103.485 232.429,103.485 232.429,96.835 233.49,96.835 
			233.49,95.903 230.054,95.903 230.054,96.835 231.115,96.835 231.115,99.452 227.692,99.452 227.692,96.835 		"/>
		<path fill-rule="evenodd" clip-rule="evenodd" d="M237.979,100.831l0.589-1.737c0.023-0.102,0.075-0.269,0.167-0.522
			c0.19-0.614,0.203-0.689,0.317-1.06l0.139-0.537l0.129,0.537l0.141,0.523l0.141,0.536l0.153,0.522l0.51,1.737H237.979
			 M236.116,103.485h-1.06v0.933h3.014v-0.933h-0.92l0.535-1.684h2.849l0.522,1.684h-0.931v0.933h3.446v-0.933h-1.099l-2.425-7.635
			h-1.405L236.116,103.485z"/>
		<path d="M245.268,96.835h1.06v6.65h-1.06v0.933h3.127v-0.933h-1.073v-6.433l0.295,0.919l0.281,0.906l0.293,0.906l0.294,0.92
			l1.098,3.521h1.085l1.2-3.561l0.32-0.92l0.307-0.932l0.306-0.932l0.306-0.92v0.945l-0.013,0.779v0.803l-0.011,0.793v3.203h-1.061
			v0.933h3.46v-0.933h-1.061v-6.65h1.061v-0.932h-2.987l-1.099,3.141l-0.306,0.881c-0.141,0.422-0.231,0.714-0.281,0.881
			l-0.332,1.174l-0.179,0.6c-0.103-0.382-0.179-0.676-0.23-0.869c-0.025-0.127-0.115-0.419-0.242-0.879l-0.243-0.869l-0.254-0.867
			l-1.022-3.191h-3.038V96.835"/>
		<path fill-rule="evenodd" clip-rule="evenodd" d="M260.115,100.462h0.627c0.715,0,0.994,0.023,1.301,0.1
			c0.549,0.154,0.906,0.703,0.906,1.395c0,0.42-0.141,0.803-0.383,1.045c-0.33,0.346-0.727,0.434-1.824,0.434h-0.627V100.462
			 M260.115,96.887h0.588c1.43,0,1.879,0.317,1.879,1.276c0,0.944-0.512,1.314-1.84,1.314h-0.627V96.887z M257.703,96.835h1.06v6.65
			h-1.06v0.933h2.655c1.404,0,1.533-0.013,2.172-0.14c1.084-0.229,1.838-1.176,1.838-2.322c0-1.1-0.602-1.828-1.738-2.109
			c0.934-0.344,1.33-0.893,1.33-1.824c0-0.32-0.066-0.639-0.18-0.934c-0.115-0.254-0.293-0.472-0.512-0.65
			c-0.484-0.395-1.07-0.521-2.322-0.535h-3.243V96.835z"/>
		<path d="M265.836,96.835h1.072v4.008l-0.014,0.59c0,1.109,0.18,1.709,0.664,2.244c0.51,0.575,1.391,0.92,2.348,0.92
			c0.982,0,1.813-0.357,2.363-0.996c0.473-0.561,0.613-1.16,0.613-2.592v-4.174h1.057v-0.932h-3.127v0.932h1.063v4.646
			c-0.014,0.792-0.09,1.111-0.346,1.457c-0.309,0.408-0.844,0.639-1.482,0.639c-0.637,0-1.148-0.219-1.441-0.639
			c-0.27-0.371-0.344-0.819-0.344-2.057v-4.047h1.072v-0.932h-3.498V96.835"/>
		<path fill-rule="evenodd" clip-rule="evenodd" d="M278.271,96.887h0.754c0.602,0,0.791,0.013,1.074,0.075
			c0.625,0.115,0.994,0.627,0.994,1.342c0,0.434-0.127,0.791-0.369,1.02c-0.32,0.334-0.65,0.409-1.699,0.409h-0.754V96.887
			 M275.848,96.835h1.061v6.65h-1.061v0.933h3.357v-0.933h-0.982v-2.744h1.52l1.453,3.677h2.121v-0.933h-1.01l-1.354-2.936
			c0.973-0.294,1.545-1.135,1.545-2.209c0-0.766-0.295-1.43-0.842-1.863c-0.307-0.229-0.65-0.396-1.033-0.459
			c-0.486-0.09-0.807-0.115-1.914-0.115h-2.861V96.835z"/>
		<path d="M290.297,96.452c-0.652-0.523-1.227-0.727-2.066-0.727c-2.26,0-3.652,1.723-3.652,4.506c0,2.756,1.404,4.365,3.779,4.365
			c0.699,0,1.34-0.139,1.979-0.433c0.486-0.229,0.664-0.357,1.084-0.741v-2.184h0.867v-0.918h-3.15v0.918h0.982v1.775
			c-0.551,0.421-1.072,0.6-1.75,0.6c-1.518,0-2.363-1.214-2.363-3.383c0-2.285,0.832-3.512,2.375-3.512
			c1.148,0,1.854,0.665,1.916,1.801h0.984v-2.616h-0.984V96.452"/>
	</g>
</g>
</svg>
