<?xml version="1.0" encoding="UTF-8" standalone="no"?>
<!-- Generator: Adobe Illustrator 16.0.0, SVG Export Plug-In . SVG Version: 6.00 Build 0)  -->

<svg
   version="1.1"
   id="Ebene_1"
   x="0px"
   y="0px"
   width="186.439"
   height="70.767097"
   viewBox="0 0 186.43899 70.767099"
   enable-background="new 0 0 382.988 148.965"
   xml:space="preserve"
   sodipodi:docname="VCD_farbe_kein_Rand.svg"
   inkscape:version="1.3.2 (091e20ef0f, 2023-11-25)"
   xmlns:inkscape="http://www.inkscape.org/namespaces/inkscape"
   xmlns:sodipodi="http://sodipodi.sourceforge.net/DTD/sodipodi-0.dtd"
   xmlns="http://www.w3.org/2000/svg"
   xmlns:svg="http://www.w3.org/2000/svg"><defs
   id="defs21" /><sodipodi:namedview
   id="namedview21"
   pagecolor="#ffffff"
   bordercolor="#000000"
   borderopacity="0.25"
   inkscape:showpageshadow="2"
   inkscape:pageopacity="0.0"
   inkscape:pagecheckerboard="0"
   inkscape:deskcolor="#d1d1d1"
   inkscape:zoom="3.5771355"
   inkscape:cx="87.50018"
   inkscape:cy="35.223714"
   inkscape:window-width="1920"
   inkscape:window-height="1008"
   inkscape:window-x="0"
   inkscape:window-y="0"
   inkscape:window-maximized="1"
   inkscape:current-layer="Ebene_1" />
<g
   id="VCD_Nord"
   transform="translate(-104.022,-39.1)">
	<g
   id="g17">
		<path
   fill="#13a0ac"
   d="M 136.994,109.647 V 98.761 h 2.031 v 9.29 h 3.775 v 1.597 h -5.806 z"
   id="path1" />
		<path
   fill="#13a0ac"
   d="m 147.867,109.647 c -0.131,-0.261 -0.146,-0.551 -0.116,-0.842 h -0.029 c -0.217,0.335 -0.464,0.61 -0.754,0.784 -0.276,0.175 -0.581,0.275 -0.901,0.275 -1.524,0 -2.191,-0.769 -2.191,-2.453 0,-1.872 1.323,-2.321 2.802,-2.933 0.798,-0.332 1.089,-0.696 0.929,-1.364 -0.086,-0.362 -0.377,-0.42 -0.885,-0.42 -0.856,0 -1.002,0.448 -0.986,1.19 h -1.801 c -0.014,-1.554 0.492,-2.644 2.86,-2.644 2.568,0 2.729,1.351 2.7,2.425 v 4.835 c 0,0.391 0.057,0.77 0.159,1.146 h -1.787 z m -0.262,-4.31 c -0.465,0.318 -1.029,0.639 -1.524,1.044 -0.275,0.234 -0.319,0.64 -0.319,0.986 0,0.626 0.188,1.047 0.887,1.047 1.117,0 0.915,-1.408 0.957,-2.192 v -0.885 z"
   id="path2" />
		<path
   fill="#13a0ac"
   d="m 153.298,102.303 h 0.03 c 0.419,-0.944 1.26,-1.061 1.697,-1.061 1.073,0 1.944,0.624 1.887,2.091 v 6.314 h -1.887 v -5.458 c 0,-0.799 -0.088,-1.321 -0.799,-1.351 -0.711,-0.027 -0.959,0.639 -0.929,1.511 v 5.298 h -1.889 v -8.187 h 1.889 v 0.843 z"
   id="path3" />
		<path
   fill="#13a0ac"
   d="m 162.184,108.775 h -0.029 c -0.363,0.829 -0.886,1.047 -1.626,1.09 -1.598,0 -1.931,-1.451 -1.975,-2.758 v -2.96 c 0.044,-2.251 0.755,-2.875 1.975,-2.905 0.798,-0.014 1.307,0.262 1.683,1.047 h 0.029 c -0.042,-0.249 -0.057,-0.48 -0.057,-0.727 V 98.76 h 1.887 v 10.887 h -1.887 z m 0,-4.266 c 0.027,-0.652 0,-1.813 -0.888,-1.813 -0.885,0 -0.796,0.768 -0.855,1.582 v 2.729 c 0.045,0.784 0.247,1.408 0.828,1.408 0.609,0 0.915,-0.508 0.915,-1.451 z"
   id="path4" />
		<path
   fill="#13a0ac"
   d="m 165.813,104.277 c -0.086,-1.93 0.901,-3.035 2.759,-3.035 2.627,0 2.903,1.365 2.903,3.6 v 1.104 H 167.7 v 1.19 c 0.015,1.075 0.422,1.278 0.985,1.278 0.698,0 0.901,-0.508 0.872,-1.537 h 1.888 c 0.07,1.827 -0.684,2.988 -2.613,2.988 -2.177,0 -3.063,-1.031 -3.02,-3.44 v -2.148 z m 3.774,0.218 v -0.712 c -0.016,-0.827 -0.231,-1.088 -0.986,-1.088 -0.942,0 -0.9,0.725 -0.9,1.467 v 0.333 z"
   id="path5" />
		<path
   fill="#13a0ac"
   d="m 174.611,106.948 c -0.146,1.51 0.435,1.466 0.87,1.466 0.538,0 0.915,-0.391 0.784,-0.914 -0.028,-0.465 -0.565,-0.728 -0.929,-0.973 l -1.031,-0.712 c -0.942,-0.652 -1.554,-1.408 -1.554,-2.585 0,-1.262 1.002,-1.988 2.816,-1.988 1.831,0 2.671,0.96 2.628,2.716 h -1.887 c 0.044,-0.915 -0.218,-1.263 -0.871,-1.263 -0.449,0 -0.799,0.201 -0.799,0.667 0,0.479 0.35,0.697 0.71,0.943 l 1.541,1.045 c 0.479,0.276 1.233,1.059 1.292,1.612 0.159,1.423 -0.188,2.902 -2.803,2.902 -1.002,0 -2.875,-0.42 -2.655,-2.917 h 1.888 z"
   id="path6" />
		<path
   fill="#13a0ac"
   d="m 178.895,101.461 h 2.032 l 0.799,4.587 c 0.159,0.739 0.23,2.034 0.261,2.425 h 0.029 c 0.028,-0.391 0.101,-1.686 0.26,-2.425 l 0.814,-4.587 h 1.96 l -1.889,8.187 h -2.353 z"
   id="path7" />
		<path
   fill="#13a0ac"
   d="m 185.964,104.277 c -0.085,-1.93 0.899,-3.035 2.76,-3.035 2.626,0 2.901,1.365 2.901,3.6 v 1.104 h -3.774 v 1.19 c 0.017,1.075 0.422,1.278 0.988,1.278 0.697,0 0.899,-0.508 0.871,-1.537 h 1.888 c 0.072,1.827 -0.684,2.988 -2.614,2.988 -2.178,0 -3.063,-1.031 -3.02,-3.44 z m 3.774,0.218 v -0.712 c -0.015,-0.827 -0.232,-1.088 -0.986,-1.088 -0.945,0 -0.901,0.725 -0.901,1.467 v 0.333 z"
   id="path8" />
		<path
   fill="#13a0ac"
   d="m 195.14,102.912 h 0.029 c 0.232,-0.595 0.465,-0.929 0.739,-1.161 0.537,-0.45 0.901,-0.421 1.176,-0.437 v 2.236 c -1.045,-0.103 -1.843,0.16 -1.872,1.364 v 4.732 h -1.887 v -8.187 h 1.814 v 1.453 z"
   id="path9" />
		<path
   fill="#13a0ac"
   d="m 198.217,98.761 h 1.889 v 2.612 c 0,0.261 -0.028,0.523 -0.043,0.916 h 0.027 c 0.379,-0.785 0.886,-1.061 1.685,-1.047 1.221,0.03 1.917,0.654 1.959,2.905 v 2.96 c -0.042,1.307 -0.363,2.758 -1.959,2.758 -0.784,-0.043 -1.306,-0.275 -1.728,-1.09 h -0.029 v 0.872 h -1.801 z m 1.888,8.202 c 0,0.943 0.305,1.451 0.914,1.451 0.581,0 0.784,-0.624 0.827,-1.408 v -2.729 c -0.058,-0.814 0.03,-1.582 -0.856,-1.582 -0.885,0 -0.913,1.161 -0.885,1.813 z"
   id="path10" />
		<path
   fill="#13a0ac"
   d="m 209.15,109.647 c -0.131,-0.261 -0.146,-0.551 -0.116,-0.842 h -0.029 c -0.219,0.335 -0.464,0.61 -0.756,0.784 -0.276,0.175 -0.58,0.275 -0.898,0.275 -1.525,0 -2.192,-0.769 -2.192,-2.453 0,-1.872 1.321,-2.321 2.801,-2.933 0.799,-0.332 1.09,-0.696 0.93,-1.364 -0.086,-0.362 -0.378,-0.42 -0.886,-0.42 -0.856,0 -1.001,0.448 -0.986,1.19 h -1.8 c -0.016,-1.554 0.492,-2.644 2.858,-2.644 2.57,0 2.73,1.351 2.7,2.425 v 4.835 c 0,0.391 0.058,0.77 0.159,1.146 h -1.785 z m -0.261,-4.31 c -0.465,0.318 -1.03,0.639 -1.525,1.044 -0.275,0.234 -0.317,0.64 -0.317,0.986 0,0.626 0.188,1.047 0.885,1.047 1.118,0 0.914,-1.408 0.958,-2.192 v -0.885 z"
   id="path11" />
		<path
   fill="#13a0ac"
   d="m 214.58,102.303 h 0.028 c 0.422,-0.944 1.264,-1.061 1.698,-1.061 1.074,0 1.945,0.624 1.888,2.091 v 6.314 h -1.888 v -5.458 c 0,-0.799 -0.086,-1.321 -0.798,-1.351 -0.71,-0.027 -0.958,0.639 -0.929,1.511 v 5.298 h -1.887 v -8.187 h 1.887 v 0.843 z"
   id="path12" />
		<path
   fill="#13a0ac"
   d="m 223.466,108.775 h -0.03 c -0.363,0.829 -0.885,1.047 -1.625,1.09 -1.596,0 -1.931,-1.451 -1.975,-2.758 v -2.96 c 0.044,-2.251 0.755,-2.875 1.975,-2.905 0.798,-0.014 1.306,0.262 1.684,1.047 h 0.028 c -0.043,-0.249 -0.057,-0.48 -0.057,-0.727 V 98.76 h 1.887 v 10.887 h -1.887 z m 0,-4.266 c 0.028,-0.652 0,-1.813 -0.886,-1.813 -0.887,0 -0.8,0.768 -0.857,1.582 v 2.729 c 0.042,0.784 0.247,1.408 0.828,1.408 0.609,0 0.915,-0.508 0.915,-1.451 z"
   id="path13" />
		<path
   fill="#13a0ac"
   d="m 235.807,98.761 h 2.031 v 10.887 h -2.118 l -1.582,-3.876 c -0.54,-1.292 -0.974,-2.612 -1.452,-4.326 h -0.03 c 0.074,0.902 0.16,2.003 0.219,3.108 0.059,1.087 0.101,2.178 0.101,3.046 v 2.048 h -2.032 V 98.761 h 2.105 l 1.583,3.962 c 0.521,1.264 0.957,2.556 1.451,4.326 h 0.028 c -0.072,-0.987 -0.144,-2.046 -0.203,-3.091 -0.058,-1.046 -0.101,-2.092 -0.101,-3.063 z"
   id="path14" />
		<path
   fill="#13a0ac"
   d="m 239.597,105.845 c 0.015,-2.802 0.042,-4.603 2.889,-4.603 2.801,0 2.815,1.801 2.831,4.603 0.014,2.846 -0.394,4.064 -2.831,4.021 -2.484,0.043 -2.905,-1.176 -2.889,-4.021 z m 1.886,1.132 c 0,1.002 0.087,1.438 1.002,1.438 0.87,0 0.943,-0.436 0.943,-1.438 v -2.729 c 0,-0.77 0,-1.552 -0.943,-1.552 -1.002,0 -1.002,0.782 -1.002,1.552 z"
   id="path15" />
		<path
   fill="#13a0ac"
   d="m 248.771,102.912 h 0.028 c 0.233,-0.595 0.465,-0.929 0.742,-1.161 0.536,-0.45 0.898,-0.421 1.174,-0.437 v 2.236 c -1.045,-0.103 -1.843,0.16 -1.873,1.364 v 4.732 h -1.886 v -8.187 h 1.814 v 1.453 z"
   id="path16" />
		<path
   fill="#13a0ac"
   d="m 255.319,108.775 h -0.03 c -0.362,0.829 -0.885,1.047 -1.624,1.09 -1.598,0 -1.933,-1.451 -1.976,-2.758 v -2.96 c 0.043,-2.251 0.755,-2.875 1.976,-2.905 0.796,-0.014 1.304,0.262 1.683,1.047 h 0.029 c -0.044,-0.249 -0.058,-0.48 -0.058,-0.727 V 98.76 h 1.887 v 10.887 h -1.887 z m 0,-4.266 c 0.028,-0.652 0,-1.813 -0.886,-1.813 -0.887,0 -0.799,0.768 -0.857,1.582 v 2.729 c 0.044,0.784 0.248,1.408 0.828,1.408 0.609,0 0.915,-0.508 0.915,-1.451 z"
   id="path17" />
	</g>
	<g
   id="g19">
		<path
   fill="#ee7203"
   d="m 247.792,40.869 c 3.203,0 6.205,0.852 8.816,2.331 -1.769,1.28 -3.321,2.828 -4.621,4.584 -1.31,-0.5 -2.714,-0.805 -4.195,-0.805 -6.54,0 -11.854,5.317 -11.854,11.854 0,7.182 6.502,12.888 11.728,17.464 0.044,0.04 0.088,0.071 0.127,0.107 0.038,-0.036 0.08,-0.067 0.12,-0.107 1.188,-1.037 2.435,-2.144 3.667,-3.304 1.07,1.756 2.308,3.409 3.641,4.965 -1.126,1.045 -2.234,2.02 -3.279,2.934 -0.743,0.648 -1.445,1.264 -2.092,1.863 l -2.057,1.864 -2.058,-1.864 c -0.651,-0.6 -1.351,-1.215 -2.094,-1.863 -5.829,-5.105 -13.814,-12.107 -13.814,-22.059 -0.001,-9.907 8.06,-17.964 17.965,-17.964"
   id="path18" />
		<path
   fill="#13a0ac"
   d="m 269.123,39.1 c -4.676,0 -8.998,1.532 -12.518,4.101 -1.766,1.281 -3.318,2.832 -4.618,4.584 1.965,0.747 3.651,2.01 4.96,3.607 1.235,-1.659 2.805,-3.043 4.604,-4.087 2.238,-1.299 4.805,-2.096 7.572,-2.096 8.397,0 15.23,6.827 15.23,15.223 0,9.118 -8.114,16.225 -14.622,21.932 -0.206,0.18 -0.401,0.358 -0.608,0.53 -0.193,-0.172 -0.397,-0.351 -0.6,-0.53 -2.991,-2.614 -6.302,-5.532 -9.023,-8.798 -1.391,-1.671 -2.624,-3.422 -3.578,-5.282 -1.292,1.676 -2.789,3.241 -4.343,4.707 1.07,1.76 2.308,3.413 3.641,4.97 2.956,3.449 6.335,6.425 9.272,8.997 0.908,0.796 1.775,1.556 2.579,2.287 l 2.052,1.869 2.061,-1.869 c 0.799,-0.731 1.667,-1.491 2.576,-2.287 7.048,-6.175 16.701,-14.641 16.701,-26.525 0,-11.762 -9.571,-21.333 -21.338,-21.333"
   id="path19" />
		<polygon
   fill="#afca0b"
   points="268.834,58.101 245.5,58.101 245.5,62.686 268.834,62.686 264.502,67.015 267.739,70.252 277.601,60.393 267.739,50.531 264.502,53.773 "
   id="polygon19" />
	</g>
	<g
   id="g21">
		<path
   fill="#13a0ac"
   d="m 180.549,69.779 c -0.135,2.948 -0.929,5.55 -2.384,7.808 -1.451,2.261 -3.495,4.012 -6.124,5.255 -2.625,1.239 -5.628,1.859 -9.003,1.859 -5.563,0 -9.945,-1.815 -13.146,-5.439 -3.203,-3.627 -4.801,-8.744 -4.801,-15.357 v -2.094 c 0,-4.151 0.724,-7.784 2.17,-10.891 1.441,-3.117 3.522,-5.518 6.238,-7.219 2.714,-1.696 5.855,-2.545 9.422,-2.545 5.138,0 9.27,1.352 12.394,4.059 3.119,2.706 4.896,6.432 5.322,11.182 h -10.181 c -0.078,-2.576 -0.727,-4.431 -1.947,-5.554 -1.225,-1.123 -3.085,-1.686 -5.588,-1.686 -2.538,0 -4.401,0.948 -5.586,2.853 -1.183,1.898 -1.801,4.933 -1.859,9.101 v 2.994 c 0,4.523 0.568,7.752 1.703,9.687 1.133,1.941 3.088,2.912 5.858,2.912 2.348,0 4.14,-0.552 5.384,-1.659 1.239,-1.104 1.896,-2.857 1.978,-5.265 h 10.15 z"
   id="path20" />
		<path
   fill="#13a0ac"
   d="m 187.761,84.117 v -42.35 h 13.644 c 3.743,0 7.108,0.847 10.093,2.546 2.985,1.699 5.318,4.093 6.993,7.184 1.679,3.094 2.527,6.563 2.545,10.399 v 1.948 c 0,3.879 -0.816,7.355 -2.457,10.431 -1.636,3.073 -3.944,5.478 -6.921,7.213 -2.979,1.735 -6.299,2.612 -9.966,2.63 H 187.761 Z M 197.97,49.648 v 26.618 h 3.55 c 2.931,0 5.178,-1.046 6.748,-3.126 1.573,-2.087 2.357,-5.185 2.357,-9.297 v -1.828 c 0,-4.096 -0.784,-7.181 -2.357,-9.251 -1.57,-2.079 -3.859,-3.116 -6.863,-3.116 z"
   id="path21" />
		<polygon
   fill="#13a0ac"
   points="143.579,41.767 129.327,84.117 118.159,84.117 104.022,41.767 115.335,41.767 123.742,72.601 132.176,41.767 "
   id="polygon21" />
	</g>
</g>
</svg>
