<?xml version="1.0" encoding="utf-8"?>
<!-- Generator: Adobe Illustrator 16.0.0, SVG Export Plug-In . SVG Version: 6.00 Build 0)  -->
<!DOCTYPE svg PUBLIC "-//W3C//DTD SVG 1.1//EN" "http://www.w3.org/Graphics/SVG/1.1/DTD/svg11.dtd">
<svg version="1.1" id="Ebene_1" xmlns="http://www.w3.org/2000/svg" xmlns:xlink="http://www.w3.org/1999/xlink" x="0px" y="0px"
	 width="382.988px" height="148.965px" viewBox="0 0 382.988 148.965" enable-background="new 0 0 382.988 148.965"
	 xml:space="preserve">
<g>
	<path fill="none" d="M112.939,68.822c0.703,0,1.295-0.252,1.776-0.759c0.481-0.48,0.722-1.048,0.722-1.702
		c0-0.716-0.24-1.313-0.722-1.795c-0.481-0.468-1.073-0.703-1.776-0.703c-0.629,0.024-1.185,0.277-1.666,0.76
		c-0.529,0.468-0.796,1.048-0.796,1.738c0,0.654,0.254,1.222,0.76,1.702C111.706,68.57,112.273,68.822,112.939,68.822z"/>
	<path fill="none" d="M103.761,68.822c0.703,0,1.295-0.252,1.776-0.759c0.481-0.48,0.722-1.048,0.722-1.702
		c0-0.716-0.24-1.313-0.722-1.795c-0.481-0.468-1.073-0.703-1.776-0.703c-0.63,0.024-1.185,0.277-1.666,0.76
		c-0.529,0.468-0.796,1.048-0.796,1.738c0,0.654,0.253,1.222,0.76,1.702C102.54,68.57,103.107,68.822,103.761,68.822z"/>
	<path fill="none" d="M115.806,72.689c-2.146-1.702-4.675-2.553-7.586-2.553c-2.875,0-5.372,0.851-7.494,2.553
		c-2.195,1.69-3.324,4.078-3.387,7.161c0.025,2.973,1.037,5.385,3.035,7.234c1.949,1.889,4.564,2.862,7.846,2.925
		c3.306-0.063,5.945-1.036,7.92-2.925c1.973-1.85,2.973-4.262,2.998-7.234C119.087,76.767,117.978,74.379,115.806,72.689z
		 M111.329,82.125c-0.099,0.802-0.276,1.543-0.536,2.222c-0.223,0.665-0.537,1.196-0.944,1.591
		c-0.456,0.456-0.998,0.685-1.628,0.685c-0.604,0-1.11-0.229-1.518-0.685c-0.432-0.395-0.758-0.926-0.979-1.591
		c-0.482-1.431-0.711-2.931-0.686-4.497c-0.025-1.542,0.203-2.96,0.686-4.256c0.283-0.629,0.622-1.135,1.017-1.518
		c0.382-0.37,0.876-0.555,1.48-0.555c0.653,0,1.185,0.185,1.591,0.555c0.407,0.383,0.722,0.889,0.945,1.518
		c0.455,1.296,0.684,2.714,0.684,4.256C111.44,80.579,111.403,81.337,111.329,82.125z"/>
	<path fill="none" d="M136.715,72.542h-0.074c-1.16-1.542-2.979-2.344-5.459-2.405c-3.12,0.085-5.353,1.215-6.698,3.386
		c-0.678,1.012-1.184,2.06-1.518,3.146c-0.333,1.11-0.499,2.171-0.499,3.183c0,2.577,0.672,4.873,2.017,6.884
		c1.369,2.098,3.516,3.188,6.439,3.275c1.395-0.025,2.561-0.346,3.497-0.963c0.926-0.579,1.69-1.172,2.295-1.777v2.276h7.587V61.699
		h-7.587V72.542z M136.012,84.309c-0.531,1.222-1.302,1.845-2.313,1.87c-0.962-0.025-1.732-0.594-2.313-1.703
		c-0.604-1.085-0.907-2.553-0.907-4.403c0-1.875,0.29-3.325,0.87-4.349c0.556-1.012,1.283-1.518,2.184-1.518
		c1.061,0.024,1.856,0.567,2.387,1.628c0.531,1.086,0.796,2.536,0.796,4.349C136.715,81.775,136.48,83.15,136.012,84.309z"/>
	<path fill="none" d="M161.684,70.136c-1.271,0-2.393,0.239-3.367,0.721c-1.012,0.482-1.851,1.093-2.517,1.832v-2.09h-7.568V99.02
		h7.568V87.455c0.666,0.716,1.449,1.314,2.35,1.796c0.888,0.48,1.888,0.733,2.998,0.759c3.01-0.088,5.248-1.203,6.716-3.35
		c1.456-2.072,2.184-4.293,2.184-6.661c-0.049-3.467-0.894-5.983-2.535-7.55C165.873,70.907,163.929,70.136,161.684,70.136z
		 M161.148,84.476c-0.272,0.53-0.598,0.931-0.98,1.202c-0.407,0.333-0.864,0.501-1.37,0.501c-1.011-0.025-1.77-0.648-2.275-1.87
		c-0.507-1.159-0.759-2.534-0.759-4.126c0-1.813,0.265-3.263,0.795-4.349c0.53-1.061,1.327-1.604,2.388-1.628
		c0.938,0,1.671,0.506,2.202,1.518c0.555,1.023,0.833,2.474,0.833,4.349C161.981,81.923,161.703,83.391,161.148,84.476z"/>
	<path fill="#3C3C3B" d="M133.533,74.207c-0.9,0-1.628,0.506-2.184,1.518c-0.58,1.023-0.87,2.474-0.87,4.349
		c0,1.851,0.303,3.318,0.907,4.403c0.58,1.109,1.351,1.678,2.313,1.703c1.012-0.025,1.782-0.648,2.313-1.87
		c0.468-1.159,0.703-2.534,0.703-4.126c0-1.813-0.265-3.263-0.796-4.349C135.389,74.774,134.593,74.231,133.533,74.207z"/>
	<path fill="#3C3C3B" d="M158.946,74.207c-1.061,0.024-1.857,0.567-2.388,1.628c-0.53,1.086-0.795,2.536-0.795,4.349
		c0,1.592,0.252,2.967,0.759,4.126c0.506,1.222,1.265,1.845,2.275,1.87c0.506,0,0.963-0.168,1.37-0.501
		c0.383-0.271,0.708-0.672,0.98-1.202c0.555-1.085,0.833-2.553,0.833-4.403c0-1.875-0.278-3.325-0.833-4.349
		C160.617,74.712,159.883,74.207,158.946,74.207z"/>
	<path fill="#3C3C3B" d="M109.811,74.077c-0.406-0.37-0.938-0.555-1.591-0.555c-0.604,0-1.099,0.185-1.48,0.555
		c-0.395,0.383-0.733,0.889-1.017,1.518c-0.482,1.296-0.711,2.714-0.686,4.256c-0.025,1.566,0.203,3.066,0.686,4.497
		c0.222,0.665,0.548,1.196,0.979,1.591c0.407,0.456,0.913,0.685,1.518,0.685c0.63,0,1.172-0.229,1.628-0.685
		c0.407-0.395,0.722-0.926,0.944-1.591c0.26-0.679,0.438-1.42,0.536-2.222c0.074-0.788,0.111-1.547,0.111-2.275
		c0-1.542-0.229-2.96-0.684-4.256C110.533,74.965,110.218,74.459,109.811,74.077z"/>
	<path fill="#3C3C3B" d="M272.32,85.154c-0.357,0-0.666,0.156-0.926,0.465c-0.26,0.31-0.389,0.758-0.389,1.345
		c0,0.578,0.078,0.995,0.236,1.252c0.256,0.421,0.604,0.629,1.041,0.629c0.357,0,0.666-0.153,0.926-0.464
		c0.26-0.31,0.391-0.771,0.391-1.385c0-0.63-0.125-1.093-0.375-1.393S272.674,85.154,272.32,85.154z"/>
	<path fill="#3C3C3B" d="M190.236,87.462c-0.139,0.061-0.246,0.149-0.321,0.265c-0.075,0.116-0.113,0.246-0.113,0.388
		c0,0.219,0.082,0.399,0.247,0.545c0.164,0.145,0.406,0.218,0.724,0.218c0.314,0,0.594-0.069,0.839-0.207
		c0.245-0.137,0.425-0.325,0.54-0.563c0.087-0.185,0.131-0.457,0.131-0.817v-0.299c-0.296,0.121-0.741,0.224-1.333,0.309
		C190.613,87.348,190.375,87.402,190.236,87.462z"/>
	<path fill="#3C3C3B" d="M258.39,87.462c-0.14,0.061-0.247,0.149-0.323,0.265c-0.075,0.116-0.112,0.246-0.112,0.388
		c0,0.219,0.082,0.399,0.247,0.545c0.165,0.145,0.405,0.218,0.723,0.218c0.314,0,0.595-0.069,0.839-0.207
		c0.244-0.137,0.424-0.325,0.539-0.563c0.088-0.185,0.133-0.457,0.133-0.817v-0.299c-0.297,0.121-0.742,0.224-1.334,0.309
		C258.766,87.348,258.528,87.402,258.39,87.462z"/>
	<path fill="#3C3C3B" d="M285.518,85.159c-0.365,0-0.672,0.146-0.926,0.442c-0.254,0.294-0.381,0.731-0.381,1.313
		c0,0.632,0.125,1.093,0.375,1.383c0.252,0.291,0.566,0.436,0.943,0.436c0.375,0,0.689-0.145,0.943-0.434
		c0.256-0.289,0.381-0.741,0.381-1.357c0-0.59-0.129-1.034-0.393-1.334C286.199,85.307,285.885,85.159,285.518,85.159z"/>
	<path fill="#3C3C3B" d="M206.689,85.154c-0.375,0-0.69,0.126-0.945,0.377c-0.256,0.251-0.397,0.587-0.425,1.007h2.689
		c-0.036-0.405-0.14-0.709-0.308-0.912C207.44,85.311,207.103,85.154,206.689,85.154z"/>
	<path fill="#3C3C3B" d="M88.945,50.718v53.71h210.713v-53.71H88.945z M111.273,64.623c0.481-0.482,1.037-0.735,1.666-0.76
		c0.703,0,1.295,0.235,1.776,0.703c0.481,0.481,0.722,1.079,0.722,1.795c0,0.654-0.24,1.222-0.722,1.702
		c-0.481,0.507-1.073,0.759-1.776,0.759c-0.666,0-1.233-0.252-1.702-0.759c-0.506-0.48-0.76-1.048-0.76-1.702
		C110.477,65.67,110.744,65.09,111.273,64.623z M102.095,64.623c0.481-0.482,1.036-0.735,1.666-0.76
		c0.703,0,1.295,0.235,1.776,0.703c0.481,0.481,0.722,1.079,0.722,1.795c0,0.654-0.24,1.222-0.722,1.702
		c-0.481,0.507-1.073,0.759-1.776,0.759c-0.654,0-1.222-0.252-1.702-0.759c-0.507-0.48-0.76-1.048-0.76-1.702
		C101.299,65.67,101.566,65.09,102.095,64.623z M116.14,87.084c-1.975,1.889-4.614,2.862-7.92,2.925
		c-3.281-0.063-5.896-1.036-7.846-2.925c-1.998-1.85-3.01-4.262-3.035-7.234c0.063-3.083,1.191-5.471,3.387-7.161
		c2.122-1.702,4.619-2.553,7.494-2.553c2.911,0,5.439,0.851,7.586,2.553c2.172,1.69,3.281,4.078,3.332,7.161
		C119.113,82.823,118.113,85.235,116.14,87.084z M144.302,89.545h-7.587v-2.276c-0.604,0.605-1.369,1.198-2.295,1.777
		c-0.937,0.617-2.103,0.938-3.497,0.963c-2.924-0.088-5.07-1.178-6.439-3.275c-1.345-2.011-2.017-4.307-2.017-6.884
		c0-1.012,0.166-2.072,0.499-3.183c0.334-1.086,0.84-2.134,1.518-3.146c1.346-2.171,3.578-3.301,6.698-3.386
		c2.479,0.062,4.299,0.863,5.459,2.405h0.074V61.699h7.587V89.545z M167.864,86.66c-1.468,2.146-3.706,3.262-6.716,3.35
		c-1.11-0.025-2.11-0.278-2.998-0.759c-0.9-0.481-1.684-1.08-2.35-1.796V99.02h-7.568V70.599h7.568v2.09
		c0.666-0.739,1.505-1.35,2.517-1.832c0.975-0.481,2.097-0.721,3.367-0.721c2.245,0,4.188,0.771,5.828,2.313
		c1.642,1.566,2.486,4.083,2.535,7.55C170.047,82.367,169.32,84.587,167.864,86.66z M188.264,89.408h-4.153v-6.648h0.879v5.864
		h3.274V89.408z M192.513,89.408c-0.085-0.17-0.139-0.368-0.164-0.594c-0.302,0.257-0.593,0.438-0.872,0.545
		c-0.28,0.105-0.579,0.157-0.9,0.157c-0.529,0-0.936-0.13-1.22-0.388c-0.284-0.259-0.426-0.589-0.426-0.99
		c0-0.235,0.053-0.451,0.16-0.646s0.248-0.352,0.422-0.47s0.37-0.206,0.587-0.267c0.161-0.043,0.402-0.084,0.727-0.123
		c0.659-0.079,1.144-0.173,1.455-0.281c0.003-0.112,0.005-0.183,0.005-0.213c0-0.333-0.078-0.567-0.231-0.703
		c-0.209-0.185-0.519-0.276-0.93-0.276c-0.384,0-0.667,0.067-0.851,0.201c-0.183,0.135-0.318,0.373-0.405,0.715l-0.798-0.108
		c0.072-0.342,0.191-0.618,0.357-0.828s0.407-0.372,0.722-0.485s0.679-0.17,1.093-0.17c0.411,0,0.744,0.049,1.002,0.145
		c0.257,0.098,0.446,0.22,0.566,0.365c0.121,0.147,0.207,0.332,0.254,0.556c0.027,0.14,0.041,0.391,0.041,0.754v1.088
		c0,0.759,0.018,1.239,0.053,1.439c0.034,0.201,0.104,0.394,0.206,0.578H192.513z M198.286,89.408h-0.816v-2.93
		c0-0.333-0.031-0.581-0.095-0.746c-0.064-0.165-0.177-0.296-0.338-0.395c-0.162-0.098-0.352-0.146-0.569-0.146
		c-0.348,0-0.647,0.11-0.9,0.331s-0.378,0.638-0.378,1.255v2.631h-0.816v-4.816h0.734v0.686c0.354-0.53,0.865-0.794,1.533-0.794
		c0.29,0,0.557,0.052,0.8,0.157c0.243,0.103,0.426,0.24,0.547,0.41c0.12,0.169,0.205,0.37,0.254,0.603
		c0.03,0.151,0.045,0.416,0.045,0.794V89.408z M203.419,89.408h-0.758V88.8c-0.305,0.478-0.754,0.716-1.346,0.716
		c-0.385,0-0.737-0.105-1.06-0.317c-0.321-0.212-0.572-0.507-0.748-0.886c-0.177-0.38-0.266-0.816-0.266-1.309
		c0-0.481,0.08-0.917,0.24-1.309s0.4-0.691,0.722-0.9c0.32-0.208,0.678-0.313,1.074-0.313c0.29,0,0.549,0.061,0.775,0.184
		c0.227,0.122,0.411,0.282,0.553,0.479v-2.386h0.813V89.408z M208.865,87.208h-3.591c0.03,0.529,0.181,0.935,0.448,1.216
		c0.27,0.281,0.605,0.42,1.008,0.42c0.299,0,0.555-0.078,0.767-0.235c0.211-0.156,0.379-0.408,0.502-0.752l0.844,0.104
		c-0.132,0.492-0.379,0.875-0.738,1.146c-0.36,0.271-0.819,0.408-1.379,0.408c-0.704,0-1.263-0.217-1.676-0.65
		c-0.412-0.434-0.618-1.042-0.618-1.825c0-0.811,0.208-1.439,0.625-1.887s0.958-0.671,1.623-0.671c0.645,0,1.17,0.22,1.578,0.658
		s0.612,1.055,0.612,1.85C208.87,87.04,208.869,87.112,208.865,87.208z M213.303,88.761c-0.159,0.24-0.389,0.426-0.688,0.559
		c-0.299,0.131-0.639,0.196-1.016,0.196c-0.626,0-1.103-0.13-1.432-0.39c-0.327-0.26-0.536-0.646-0.627-1.156l0.807-0.127
		c0.046,0.323,0.171,0.571,0.379,0.744c0.207,0.172,0.497,0.257,0.868,0.257c0.375,0,0.653-0.075,0.834-0.229
		c0.182-0.152,0.272-0.331,0.272-0.537c0-0.185-0.08-0.329-0.239-0.435c-0.113-0.072-0.391-0.166-0.836-0.277
		c-0.598-0.15-1.013-0.282-1.244-0.392c-0.231-0.111-0.406-0.264-0.526-0.458c-0.119-0.195-0.179-0.41-0.179-0.646
		c0-0.215,0.049-0.413,0.146-0.597c0.099-0.182,0.232-0.334,0.402-0.455c0.127-0.094,0.299-0.174,0.52-0.238
		c0.219-0.065,0.453-0.098,0.705-0.098c0.377,0,0.709,0.055,0.994,0.163c0.287,0.109,0.497,0.256,0.633,0.442
		c0.137,0.186,0.23,0.435,0.282,0.746l-0.798,0.108c-0.037-0.248-0.143-0.441-0.316-0.58c-0.173-0.14-0.419-0.209-0.736-0.209
		c-0.375,0-0.642,0.063-0.803,0.186c-0.16,0.125-0.24,0.27-0.24,0.437c0,0.105,0.033,0.201,0.1,0.285
		c0.066,0.088,0.171,0.16,0.313,0.218c0.082,0.029,0.322,0.1,0.722,0.208c0.577,0.155,0.98,0.281,1.208,0.379
		c0.229,0.099,0.408,0.241,0.537,0.429c0.131,0.188,0.196,0.42,0.196,0.697C213.542,88.265,213.461,88.521,213.303,88.761z
		 M216.611,89.408h-0.762l-1.832-4.816h0.861l1.034,2.884c0.111,0.313,0.215,0.636,0.309,0.971c0.072-0.253,0.174-0.56,0.304-0.915
		l1.07-2.939h0.839L216.611,89.408z M223.318,87.208h-3.592c0.03,0.529,0.18,0.935,0.449,1.216s0.604,0.42,1.007,0.42
		c0.299,0,0.555-0.078,0.766-0.235c0.212-0.156,0.38-0.408,0.503-0.752l0.844,0.104c-0.132,0.492-0.379,0.875-0.738,1.146
		s-0.819,0.408-1.379,0.408c-0.704,0-1.263-0.217-1.676-0.65c-0.412-0.434-0.619-1.042-0.619-1.825c0-0.811,0.209-1.439,0.627-1.887
		c0.417-0.447,0.958-0.671,1.622-0.671c0.645,0,1.171,0.22,1.579,0.658s0.611,1.055,0.611,1.85
		C223.322,87.04,223.32,87.112,223.318,87.208z M226.646,85.503c-0.199-0.118-0.398-0.177-0.599-0.177
		c-0.178,0-0.338,0.053-0.48,0.16c-0.142,0.107-0.243,0.257-0.304,0.447c-0.091,0.29-0.137,0.607-0.137,0.952v2.521h-0.816v-4.816
		h0.735v0.73c0.188-0.342,0.36-0.566,0.52-0.676c0.159-0.108,0.333-0.163,0.523-0.163c0.275,0,0.555,0.087,0.839,0.263
		L226.646,85.503z M230.972,88.84c-0.408,0.451-0.897,0.676-1.469,0.676c-0.568,0-1.015-0.236-1.338-0.712v0.604h-0.758v-6.648
		h0.816v2.372c0.345-0.432,0.785-0.648,1.319-0.648c0.297,0,0.577,0.06,0.842,0.179c0.264,0.12,0.482,0.288,0.652,0.504
		c0.171,0.217,0.305,0.477,0.401,0.782s0.146,0.632,0.146,0.979C231.584,87.752,231.38,88.391,230.972,88.84z M235.884,89.408
		c-0.086-0.17-0.14-0.368-0.164-0.594c-0.303,0.257-0.594,0.438-0.873,0.545c-0.28,0.105-0.579,0.157-0.9,0.157
		c-0.529,0-0.936-0.13-1.219-0.388c-0.285-0.259-0.427-0.589-0.427-0.99c0-0.235,0.053-0.451,0.161-0.646
		c0.106-0.195,0.248-0.352,0.421-0.47c0.174-0.118,0.37-0.206,0.588-0.267c0.159-0.043,0.401-0.084,0.726-0.123
		c0.658-0.079,1.145-0.173,1.455-0.281c0.003-0.112,0.005-0.183,0.005-0.213c0-0.333-0.077-0.567-0.23-0.703
		c-0.21-0.185-0.52-0.276-0.931-0.276c-0.384,0-0.667,0.067-0.85,0.201c-0.184,0.135-0.319,0.373-0.406,0.715l-0.798-0.108
		c0.072-0.342,0.191-0.618,0.358-0.828c0.166-0.21,0.406-0.372,0.721-0.485s0.679-0.17,1.093-0.17c0.411,0,0.745,0.049,1.002,0.145
		c0.257,0.098,0.446,0.22,0.567,0.365c0.121,0.147,0.205,0.332,0.254,0.556c0.027,0.14,0.04,0.391,0.04,0.754v1.088
		c0,0.759,0.018,1.239,0.053,1.439c0.034,0.201,0.104,0.394,0.206,0.578H235.884z M241.656,89.408h-0.815v-2.93
		c0-0.333-0.032-0.581-0.096-0.746s-0.176-0.296-0.338-0.395c-0.161-0.098-0.351-0.146-0.569-0.146c-0.347,0-0.647,0.11-0.899,0.331
		c-0.253,0.221-0.379,0.638-0.379,1.255v2.631h-0.816v-4.816h0.734v0.686c0.354-0.53,0.864-0.794,1.533-0.794
		c0.29,0,0.557,0.052,0.8,0.157c0.243,0.103,0.426,0.24,0.547,0.41c0.121,0.169,0.206,0.37,0.254,0.603
		c0.031,0.151,0.045,0.416,0.045,0.794V89.408z M246.79,89.408h-0.757V88.8c-0.307,0.478-0.754,0.716-1.348,0.716
		c-0.384,0-0.736-0.105-1.059-0.317c-0.321-0.212-0.572-0.507-0.748-0.886c-0.177-0.38-0.266-0.816-0.266-1.309
		c0-0.481,0.08-0.917,0.24-1.309s0.401-0.691,0.721-0.9c0.321-0.208,0.68-0.313,1.075-0.313c0.29,0,0.549,0.061,0.776,0.184
		c0.226,0.122,0.41,0.282,0.553,0.479v-2.386h0.812V89.408z M256,89.408h-0.879v-3.133h-3.456v3.133h-0.88v-6.648h0.88v2.73h3.456
		v-2.73H256V89.408z M260.666,89.408c-0.084-0.17-0.139-0.368-0.164-0.594c-0.301,0.257-0.592,0.438-0.873,0.545
		c-0.279,0.105-0.578,0.157-0.9,0.157c-0.528,0-0.935-0.13-1.22-0.388c-0.283-0.259-0.426-0.589-0.426-0.99
		c0-0.235,0.054-0.451,0.16-0.646c0.107-0.195,0.248-0.352,0.423-0.47c0.174-0.118,0.369-0.206,0.587-0.267
		c0.16-0.043,0.402-0.084,0.725-0.123c0.659-0.079,1.145-0.173,1.458-0.281c0.002-0.112,0.004-0.183,0.004-0.213
		c0-0.333-0.076-0.567-0.232-0.703c-0.209-0.185-0.518-0.276-0.928-0.276c-0.385,0-0.668,0.067-0.851,0.201
		c-0.184,0.135-0.318,0.373-0.406,0.715l-0.798-0.108c0.073-0.342,0.191-0.618,0.358-0.828c0.166-0.21,0.406-0.372,0.721-0.485
		s0.679-0.17,1.093-0.17c0.412,0,0.744,0.049,1.002,0.145c0.258,0.098,0.445,0.22,0.566,0.365c0.121,0.147,0.205,0.332,0.254,0.556
		c0.027,0.14,0.041,0.391,0.041,0.754v1.088c0,0.759,0.018,1.239,0.053,1.439c0.035,0.201,0.104,0.394,0.207,0.578H260.666z
		 M269.051,89.408h-0.813v-3.033c0-0.327-0.025-0.563-0.078-0.706c-0.055-0.144-0.148-0.259-0.289-0.347
		c-0.139-0.088-0.301-0.131-0.49-0.131c-0.338,0-0.619,0.112-0.842,0.338c-0.225,0.225-0.336,0.585-0.336,1.081v2.798h-0.816v-3.129
		c0-0.363-0.066-0.636-0.199-0.816c-0.133-0.182-0.352-0.271-0.652-0.271c-0.23,0-0.443,0.06-0.639,0.181s-0.336,0.299-0.424,0.531
		s-0.131,0.567-0.131,1.007v2.498h-0.816v-4.816h0.73v0.676c0.15-0.235,0.352-0.425,0.604-0.568c0.25-0.144,0.535-0.216,0.855-0.216
		c0.357,0,0.65,0.074,0.879,0.223c0.227,0.148,0.389,0.354,0.482,0.621c0.381-0.563,0.877-0.844,1.486-0.844
		c0.479,0,0.846,0.132,1.104,0.396c0.256,0.265,0.385,0.673,0.385,1.223V89.408z M273.82,88.84
		c-0.406,0.451-0.896,0.676-1.469,0.676c-0.566,0-1.014-0.236-1.338-0.712v0.604h-0.758v-6.648h0.816v2.372
		c0.346-0.432,0.785-0.648,1.32-0.648c0.297,0,0.578,0.06,0.842,0.179c0.264,0.12,0.482,0.288,0.652,0.504
		c0.172,0.217,0.305,0.477,0.402,0.782c0.096,0.306,0.145,0.632,0.145,0.979C274.434,87.752,274.229,88.391,273.82,88.84z
		 M279.313,89.408h-0.73V88.7c-0.375,0.544-0.883,0.816-1.527,0.816c-0.283,0-0.549-0.055-0.797-0.163
		c-0.246-0.109-0.428-0.245-0.547-0.411c-0.121-0.164-0.205-0.365-0.252-0.604c-0.033-0.16-0.051-0.414-0.051-0.762v-2.984h0.816
		v2.672c0,0.426,0.018,0.713,0.051,0.861c0.051,0.214,0.16,0.383,0.326,0.505c0.166,0.123,0.371,0.185,0.615,0.185
		c0.246,0,0.477-0.063,0.691-0.188c0.213-0.126,0.365-0.296,0.455-0.513c0.088-0.216,0.133-0.529,0.133-0.94v-2.581h0.816V89.408z
		 M282.918,85.503c-0.199-0.118-0.398-0.177-0.598-0.177c-0.18,0-0.34,0.053-0.482,0.16c-0.141,0.107-0.242,0.257-0.303,0.447
		c-0.09,0.29-0.137,0.607-0.137,0.952v2.521h-0.816v-4.816h0.734v0.73c0.188-0.342,0.361-0.566,0.52-0.676
		c0.158-0.108,0.334-0.163,0.523-0.163c0.275,0,0.557,0.087,0.84,0.263L282.918,85.503z M287.615,88.755
		c0,0.749-0.076,1.28-0.229,1.593c-0.152,0.313-0.395,0.561-0.727,0.742c-0.33,0.181-0.736,0.271-1.221,0.271
		c-0.574,0-1.039-0.129-1.393-0.388c-0.354-0.258-0.523-0.647-0.512-1.167l0.793,0.117c0.033,0.245,0.125,0.423,0.277,0.535
		c0.201,0.151,0.479,0.227,0.828,0.227c0.379,0,0.672-0.075,0.877-0.227s0.344-0.363,0.418-0.635
		c0.041-0.167,0.061-0.515,0.059-1.047c-0.357,0.42-0.803,0.63-1.334,0.63c-0.662,0-1.174-0.239-1.537-0.717
		c-0.363-0.479-0.545-1.05-0.545-1.719c0-0.459,0.084-0.883,0.25-1.271c0.166-0.388,0.406-0.688,0.723-0.9s0.688-0.317,1.113-0.317
		c0.568,0,1.037,0.229,1.406,0.689v-0.581h0.752V88.755z"/>
	<path fill="#3C3C3B" d="M201.357,85.159c-0.363,0-0.667,0.148-0.91,0.444s-0.365,0.763-0.365,1.401c0,0.617,0.13,1.077,0.39,1.383
		c0.261,0.306,0.567,0.457,0.921,0.457c0.356,0,0.659-0.145,0.91-0.437c0.248-0.291,0.374-0.736,0.374-1.336
		c0-0.659-0.128-1.142-0.382-1.45S201.728,85.159,201.357,85.159z"/>
	<path fill="#3C3C3B" d="M221.141,85.154c-0.375,0-0.69,0.126-0.945,0.377c-0.256,0.251-0.397,0.587-0.425,1.007h2.689
		c-0.036-0.405-0.139-0.709-0.309-0.912C221.892,85.311,221.555,85.154,221.141,85.154z"/>
	<path fill="#3C3C3B" d="M229.471,85.154c-0.356,0-0.665,0.156-0.925,0.465c-0.26,0.31-0.39,0.758-0.39,1.345
		c0,0.578,0.078,0.995,0.235,1.252c0.257,0.421,0.604,0.629,1.043,0.629c0.357,0,0.666-0.153,0.925-0.464
		c0.261-0.31,0.391-0.771,0.391-1.385c0-0.63-0.125-1.093-0.374-1.393C230.126,85.303,229.825,85.154,229.471,85.154z"/>
	<path fill="#3C3C3B" d="M233.607,87.462c-0.139,0.061-0.246,0.149-0.322,0.265c-0.074,0.116-0.113,0.246-0.113,0.388
		c0,0.219,0.083,0.399,0.247,0.545c0.165,0.145,0.406,0.218,0.724,0.218c0.314,0,0.594-0.069,0.839-0.207
		c0.245-0.137,0.425-0.325,0.54-0.563c0.087-0.185,0.131-0.457,0.131-0.817v-0.299c-0.296,0.121-0.74,0.224-1.333,0.309
		C233.984,87.348,233.747,87.402,233.607,87.462z"/>
	<path fill="#3C3C3B" d="M244.726,85.159c-0.362,0-0.666,0.148-0.909,0.444s-0.364,0.763-0.364,1.401
		c0,0.617,0.129,1.077,0.39,1.383c0.26,0.306,0.566,0.457,0.92,0.457c0.356,0,0.66-0.145,0.909-0.437
		c0.25-0.291,0.374-0.736,0.374-1.336c0-0.659-0.126-1.142-0.38-1.45C245.411,85.313,245.098,85.159,244.726,85.159z"/>
</g>
</svg>
